﻿Anno;Quartiere;NIL;Uomini;Donne;Totale;Minori;Stranieri;Famiglie;Famiglie unipersonali;80 e più soli;Nati;Nati fuori dal matrimonio;Nati con almeno un genitore straniero;Morti;Emigrati;Immigrati;80 e più;65 e più;Prima cittadinanza;residenti prima cittadinanza;Seconda cittadinanza;residenti seconda cittadinanza;Terza cittadinanza;residenti terza cittadinanza;Scuola dell'infanzia (numero);Scuola primaria (numero);Scuola secondaria di primo grado (numero);Area (metri quadrati);fermate linee superficie;fermate metro;piste ciclabili (m)
2011;Adriano;17;7188;7042;14230;2712;2538;8498;3897;545;160;48;48;70;315;893;476;2141;Filippine;449;Cinese, Repubblica Popolare;328;Egitto;275;4;1;0;2431560,11;34;0;1360
2011;Affori;80;11497;11564;23061;3721;6276;9044;4063;609;229;76;102;201;502;1009;1226;4623;Cinese, Repubblica Popolare;1333;Egitto;979;Filippine;903;5;3;2;2070893,65;21;2;1550
2011;Baggio;55;14029;15565;29594;4468;4545;23;7;0;230;92;89;320;607;944;2003;7741;Filippine;892;Perù;687;Egitto;488;7;3;2;3478599,96;55;0;0
2011;Bande Nere;52;19693;23762;43455;5994;5915;7461;3288;522;347;114;104;593;918;1403;4443;12772;Filippine;1253;Perù;521;Egitto;520;14;7;7;2663880,93;73;3;0
2011;Barona;46;8090;9241;17331;2381;1944;6458;2623;485;87;36;32;253;330;286;1312;5179;Egitto;494;Marocco;221;Filippine;188;3;3;1;2006324,59;59;0;1240
2011;Bicocca;15;3502;3410;6912;1242;1076;10133;4802;608;62;17;27;44;264;372;257;1118;Egitto;166;Filippine;122;Ecuador;84;0;0;0;1534521,13;39;3;3070
2011;Bovisa;77;6410;6177;12587;1834;4025;8504;3483;596;126;41;72;82;320;678;745;2337;Egitto;949;Cinese, Repubblica Popolare;657;Filippine;452;4;2;1;1913132,63;27;1;3470
2011;Bovisasca;81;3467;3868;7335;1089;883;1;0;0;51;21;20;97;147;152;525;1901;Perù;105;Egitto;104;Cinese, Repubblica Popolare;84;3;1;1;1576826,44;23;0;0
2011;Brera;2;8247;9847;18094;2840;2523;2578;1179;176;152;50;26;146;492;676;1224;4063;Filippine;445;Sri Lanka (ex Ceylon);249;Perù;138;6;6;5;1637395,23;63;4;1354
2011;Bruzzano;83;5985;6256;12241;1888;2039;8439;3703;486;103;47;35;112;255;380;649;2741;Egitto;291;Perù;210;Ecuador;192;3;2;1;1667691,29;21;1;0
2011;Buenos Aires - Venezia;21;28741;32833;61574;9071;8053;10941;4908;732;490;169;123;535;1408;2244;4270;13854;Filippine;1390;Sri Lanka (ex Ceylon);574;Perù;543;10;5;4;2877542,27;119;5;1220
2011;Cantalupa;47;234;230;464;74;67;13048;6022;1021;5;2;1;4;19;23;8;70;Cinese, Repubblica Popolare;14;Egitto;10;Bulgaria;8;0;0;0;926716,81;2;0;1460
2011;Cascina Triulza - Expo;73;306;82;388;31;33;7260;3265;580;1;1;0;1;27;94;1;13;Cinese, Repubblica Popolare;9;Marocco;5;Romania;4;0;0;0;1729126,9;1;0;2204
2011;Centrale;10;8657;8807;17464;2514;4014;18298;8179;1452;156;58;70;161;449;853;1089;3514;Filippine;615;Cinese, Repubblica Popolare;505;Bangladesh;455;3;4;4;1556077,52;65;5;878
2011;Chiaravalle;34;569;539;1108;148;134;3193;1276;119;6;1;3;15;18;32;41;210;Bangladesh;27;Filippine;16;Romania;13;1;0;0;311640,12;4;0;0
2011;Città Studi;22;16859;19962;36821;4890;5389;13825;6368;777;315;107;86;414;849;1386;3271;9524;Filippine;840;Perù;666;Egitto;388;7;8;5;2207487,44;88;2;564
2011;Comasina;82;4580;4796;9376;1645;2748;6447;2550;227;91;44;56;92;207;374;711;1966;Cinese, Repubblica Popolare;742;Egitto;365;Perù;291;3;2;2;926734,56;24;1;0
2011;Corsica;25;8547;10266;18813;2530;2731;10004;4460;1030;164;54;42;178;398;671;1639;4797;Filippine;635;Perù;249;Ecuador;224;6;3;2;1081329,7;35;2;1930
2011;De Angeli - Monte Rosa;58;9324;11424;20748;3139;2536;17536;7934;1222;194;66;42;199;428;747;1750;5202;Filippine;368;Francia;301;Perù;166;3;2;3;1323078,54;249;2;1550
2011;Dergano;79;11048;10204;21252;3394;6751;20832;9376;1140;214;75;122;157;429;1074;1110;3840;Egitto;1460;Cinese, Repubblica Popolare;1301;Filippine;803;3;3;3;1358615,04;29;3;325
2011;Duomo;1;8149;9053;17202;2780;2495;30489;13499;2056;140;44;35;145;447;795;1067;3698;Filippine;497;Sri Lanka (ex Ceylon);296;Perù;143;4;4;3;2341704,07;106;8;0
2011;Ex OM - Morivione;37;3611;4050;7661;1269;1151;18593;8494;1609;68;21;14;112;175;261;543;1627;Filippine;207;Egitto;166;Sri Lanka (ex Ceylon);130;2;1;1;817976,68;10;0;510
2011;Farini;78;1993;1827;3820;537;1272;4901;2277;277;47;19;28;27;112;221;157;594;Egitto;330;Cinese, Repubblica Popolare;218;Filippine;154;0;0;0;1010230,89;17;0;325
2011;Figino;63;852;891;1743;270;238;500;271;24;15;4;2;16;39;54;115;349;Romania;53;Egitto;35;Sri Lanka (ex Ceylon);35;2;2;1;1424713,85;11;0;0
2011;Forze Armate;56;11073;12470;23543;3385;3533;9323;4117;772;187;72;60;251;513;906;1565;6044;Filippine;641;Egitto;487;Perù;396;7;5;2;3206902,39;66;2;0
2011;Gallaratese;65;15505;17470;32975;4361;2467;15476;6907;1139;204;75;41;389;606;593;2842;11489;Perù;297;Filippine;250;Romania;235;6;6;3;3894538,21;87;5;2570
2011;Garibaldi Repubblica;9;2510;2772;5282;722;724;8309;3752;546;43;11;11;44;180;217;347;1087;Perù;91;Cinese, Repubblica Popolare;71;Filippine;56;1;0;0;785668,25;27;2;1290
2011;Ghisolfa;70;7981;9126;17107;2596;2711;11291;5222;888;169;49;57;173;338;595;1429;3985;Cinese, Repubblica Popolare;485;Filippine;468;Egitto;246;0;0;0;1051452,21;32;0;203
2011;Giambellino;49;14792;16464;31256;4742;7055;2031;968;165;263;85;104;342;744;1291;2282;7287;Egitto;1627;Filippine;1141;Perù;560;2;2;2;1965274,21;57;4;1890
2011;Giardini Porta Venezia;3;24;29;53;14;9;9568;4186;964;0;0;0;0;5;10;1;5;Filippine;5;Brasile;1;Sri Lanka (ex Ceylon);1;1;0;0;249646,83;3;0;0
2011;Gratosoglio - Ticinello;41;8961;9906;18867;3041;2288;2167;953;78;87;42;28;213;396;388;1332;5605;Egitto;372;Filippine;288;Marocco;239;3;4;2;3312818,32;37;0;2153
2011;Greco;13;7128;7621;14749;2250;3269;764;480;17;147;54;61;128;415;578;1206;3417;Filippine;667;Cinese, Repubblica Popolare;459;Egitto;363;2;2;2;1768669,43;35;0;3460
2011;Guastalla;4;6962;8195;15157;2270;1995;4433;2012;187;121;28;24;123;322;537;1130;3596;Filippine;405;Sri Lanka (ex Ceylon);323;Perù;121;6;7;9;1548020,74;52;2;0
2011;Isola;11;10649;11509;22158;3103;4005;527;235;19;190;79;59;175;552;968;1474;4671;Egitto;564;Filippine;560;Cinese, Repubblica Popolare;553;3;2;2;1322966,34;53;1;285
2011;Lambrate;23;4986;5213;10199;1710;1987;17736;8070;1455;101;30;43;127;242;436;655;1966;Filippine;395;Egitto;315;Perù;158;4;4;2;3096861,87;39;0;1595
2011;Lodi - Corvetto;35;17029;18360;35389;4925;7963;5271;2486;226;280;93;140;472;858;1861;2969;8971;Egitto;1321;Filippine;1302;Perù;703;9;7;4;3639092,52;54;4;1680
2011;Lorenteggio;53;6108;7102;13210;2013;1688;3569;1575;195;87;25;22;189;230;335;1397;3880;Egitto;364;Filippine;187;Ecuador;139;5;4;3;2635327,1;44;0;2100
2011;Loreto;20;21737;20888;42625;5946;13816;6483;2495;374;405;152;209;328;1149;2525;2342;7726;Egitto;2588;Filippine;2556;Cinese, Repubblica Popolare;1280;8;5;3;1747565,53;56;2;640
2011;Maciachini - Maggiolina;12;12224;13677;25901;3668;4901;178;88;6;233;86;87;283;518;985;2059;6158;Filippine;953;Cinese, Repubblica Popolare;696;Egitto;487;9;3;2;1674980,95;51;1;458
2011;Magenta - S. Vittore;7;8127;9554;17681;3084;2191;308;92;15;144;49;32;164;377;624;1220;3839;Filippine;374;Francia;298;Sri Lanka (ex Ceylon);280;7;6;4;1390146,88;58;4;1840
2011;Maggiore - Musocco;72;2363;2537;4900;749;704;8646;3179;531;59;15;19;49;462;162;293;1237;Perù;101;Ecuador;86;Egitto;78;2;2;1;3030188,71;47;0;0
2011;Mecenate;30;8741;10242;18983;2743;2540;15397;7487;1033;130;50;35;282;372;524;2099;5906;Perù;365;Filippine;287;Egitto;273;4;4;2;3821389,97;86;0;1940
2011;Muggiano;54;1446;1470;2916;724;170;6148;3075;514;49;14;8;12;56;96;54;300;Egitto;28;Ecuador;26;Romania;18;1;1;0;444218,42;7;0;1040
2011;Navigli;44;7902;8935;16837;2328;2378;8502;4088;525;188;68;48;149;424;787;1058;3425;Filippine;304;Egitto;264;Perù;203;4;1;0;1483927,87;58;2;8020
2011;Niguarda - Cà Granda;14;17117;19283;36400;5156;4313;7109;3639;390;289;109;84;398;819;948;3050;10195;Egitto;592;Perù;436;Filippine;347;10;6;4;4251281,95;115;0;859
2011;Ortomercato;29;2008;2008;4016;554;1314;7949;3050;569;30;11;20;50;99;225;325;954;Egitto;326;Filippine;207;Romania;126;1;1;0;1402519,65;15;0;1400
2011;Padova;19;17342;17969;35311;4891;10683;235;101;5;335;132;191;324;913;1822;2583;8117;Filippine;2323;Egitto;1786;Perù;1009;5;4;3;2061945,5;49;2;650
2011;Pagano;68;7912;9203;17115;3155;1836;7323;3167;440;119;38;26;157;322;559;1298;3934;Filippine;331;Francia;173;Sri Lanka (ex Ceylon);164;2;2;2;1289734,29;53;1;1887
2011;Parco Agricolo Sud;87;156;138;294;71;27;16013;7663;1188;4;4;2;1;32;20;8;35;Paesi Bassi;9;Croazia;5;Serbia, Repubblica di;3;0;0;0;5844580,12;1;0;2750
2011;Parco Bosco in Città;88;384;255;639;145;347;7293;3036;551;11;4;4;2;208;100;15;58;Serbia, Repubblica di;84;Macedonia, Repubblica di;64;Eritrea;34;0;0;0;7837668,61;22;0;100
2011;Parco dei Navigli;86;157;136;293;58;44;13469;6136;1080;2;1;1;0;14;23;11;29;Romania;12;Bulgaria;11;Marocco;4;0;0;0;3617836,27;2;0;0
2011;Parco delle Abbazie;85;246;199;445;120;210;22068;9998;2100;10;6;6;1;12;20;6;35;Romania;77;Serbia, Repubblica di;56;Bosnia-Erzegovina;38;0;0;0;13722000;22;0;1940
2011;Parco Forlanini - Ortica;24;504;433;937;139;268;6170;2394;623;15;3;6;4;50;51;38;127;Egitto;44;Romania;42;Marocco;33;0;0;0;2925814,52;16;1;3800
2011;Parco Lambro - Cimiano;18;9051;10676;19727;2635;2778;1273;489;31;149;54;49;275;451;666;2071;5808;Filippine;581;Perù;379;Egitto;297;7;4;3;4971969,5;61;3;1940
2011;Parco Monlué - Ponte Lambro;31;2502;2364;4866;983;1690;14845;6637;952;60;22;37;30;152;255;137;679;Egitto;291;Ecuador;199;Perù;171;1;1;0;2639289,21;21;0;3430
2011;Parco Nord;84;75;67;142;23;41;11892;5415;764;2;1;1;2;0;7;2;14;Cinese, Repubblica Popolare;6;Sri Lanka (ex Ceylon);6;Albania;4;1;1;0;1533639,39;12;0;1200
2011;Parco Sempione;8;3;0;3;2;0;13372;6670;1115;0;0;0;0;0;0;0;0;;0;;0;;0;0;0;0;470434,33;8;0;1350
2011;Porta Romana;27;7808;8811;16619;2331;1967;10356;4761;797;163;50;27;141;406;700;1059;3484;Filippine;386;Sri Lanka (ex Ceylon);138;Egitto;120;1;2;1;1002793,53;36;1;420
2011;Portello;67;3570;4118;7688;1054;739;616;259;57;69;25;12;75;143;223;777;2168;Filippine;122;Perù;105;Ucraina;49;3;3;0;909636,6;22;0;0
2011;QT 8;66;1841;2249;4090;599;406;5783;1963;333;28;8;5;42;60;98;479;1124;Filippine;62;Sri Lanka (ex Ceylon);44;Perù;37;3;2;1;1024437,42;18;1;917
2011;Quarto Cagnino;61;4644;4907;9551;1408;822;4601;1889;223;66;34;16;80;158;236;517;2443;Egitto;155;Perù;95;Cinese, Repubblica Popolare;80;3;1;1;986391,48;29;0;630
2011;Quarto Oggiaro;76;15343;16582;31925;5293;6419;2398;993;112;244;106;116;363;688;790;2385;7316;Cinese, Repubblica Popolare;1394;Egitto;898;Filippine;559;7;5;3;2778263,75;47;2;840
2011;Quinto Romano;62;2432;2536;4968;701;422;882;415;50;34;15;10;34;100;106;220;1086;Egitto;62;Filippine;49;Perù;46;1;1;0;1645859,77;19;0;1680
2011;Quintosole;39;504;172;676;73;117;2007;775;94;8;2;4;7;69;79;9;78;Albania;28;Egitto;22;Romania;17;0;0;0;1057528,77;4;0;0
2011;Ripamonti;38;6534;6995;13529;2043;1499;16731;7351;1240;125;41;27;120;258;430;779;3416;Filippine;178;Sri Lanka (ex Ceylon);161;Egitto;150;4;2;1;1853233,5;34;0;930
2011;Rogoredo;33;4543;4410;8953;1690;1414;1986;839;232;111;41;29;56;187;432;352;1277;Egitto;200;Perù;180;Romania;123;2;1;1;1200161,64;8;0;0
2011;Ronchetto delle Rane;40;395;373;768;199;116;3895;1726;407;6;0;3;4;12;9;24;84;Egitto;42;Filippine;17;Perù;14;0;0;0;188870,6;1;0;0
2011;Ronchetto sul Naviglio;48;6981;7551;14532;1948;1693;8150;3488;626;111;45;48;138;296;385;911;4040;Egitto;334;Perù;219;Filippine;189;4;4;3;2406775,2;39;0;4430
2011;S. Cristoforo;45;6248;6785;13033;1926;2250;14401;6622;970;121;37;39;102;339;491;764;2911;Egitto;483;Filippine;287;Perù;195;5;1;1;1596174,14;37;0;4200
2011;S. Siro;60;6245;6771;13016;2452;2463;8483;3684;715;101;38;26;96;304;434;836;2849;Francia;613;Filippine;340;Perù;190;7;9;4;3435307,37;65;0;0
2011;Sacco;74;145;128;273;49;53;19436;8822;1465;4;2;2;2;3;6;7;47;Cinese, Repubblica Popolare;22;Filippine;8;Romania;5;0;0;0;708465,8;4;0;2204
2011;Sarpi;69;13509;15685;29194;4454;4936;2699;1296;171;299;125;92;294;637;1188;2024;6162;Cinese, Repubblica Popolare;1706;Filippine;603;Sri Lanka (ex Ceylon);247;3;4;3;1811914,53;70;0;0
2011;Scalo Romana;36;5427;5130;10557;1471;3162;35;12;1;92;33;54;67;480;681;437;1878;Egitto;674;Filippine;566;Sri Lanka (ex Ceylon);263;0;1;0;1736727,98;26;0;2000
2011;Selinunte;57;12365;13438;25803;3875;7995;118;37;1;220;79;134;303;568;1144;2088;6090;Egitto;2411;Filippine;1121;Marocco;661;2;1;1;984925,54;47;0;0
2011;Stadera;42;14135;14958;29093;4422;5040;30;15;1;250;89;91;278;585;1143;2020;6705;Filippine;877;Egitto;782;Perù;378;9;5;3;3232237,35;47;1;2600
2011;Stephenson;75;31;26;57;5;14;15656;6878;1135;0;0;0;1;1;2;2;12;Cinese, Repubblica Popolare;9;Brasile;4;Perù;1;0;0;0;560097,89;0;0;0
2011;Tibaldi;43;5529;6097;11626;1441;1854;6864;3724;426;99;48;35;115;309;478;928;2910;Egitto;347;Filippine;271;Perù;167;2;1;1;786214,31;22;0;0
2011;Ticinese;6;9351;10669;20020;2677;2463;1866;864;80;144;51;36;189;530;872;1236;4249;Filippine;363;Egitto;290;Sri Lanka (ex Ceylon);170;8;3;2;1255064,75;37;0;184
2011;Tortona;50;6851;8268;15119;2300;1354;10452;4940;536;117;41;23;134;287;439;1142;3693;Filippine;208;Perù;101;Sri Lanka (ex Ceylon);101;4;2;0;996786,39;23;1;730
2011;Tre Torri;59;594;731;1325;238;158;11146;4692;588;7;2;3;10;24;48;103;312;Francia;32;Filippine;18;Perù;10;0;0;0;513316,34;14;0;780
2011;Trenno;64;2157;2102;4259;568;261;3345;1222;192;27;13;4;37;188;133;203;995;Eritrea;30;Somalia;24;Filippine;21;2;0;0;489710,56;13;0;225
2011;Triulzo Superiore;32;839;561;1400;227;934;4411;1892;356;14;3;13;6;50;161;30;113;Egitto;261;Sri Lanka (ex Ceylon);132;Perù;112;0;0;0;1395022,03;14;1;0
2011;Umbria - Molise;28;10580;11912;22492;3112;4327;5839;2322;287;194;62;80;247;497;969;1807;5413;Filippine;772;Egitto;701;Perù;339;3;1;1;1192396,73;43;1;2910
2011;Viale Monza;16;13301;14016;27317;4043;5851;61;29;2;279;100;122;212;660;1160;1569;6025;Filippine;1334;Perù;654;Egitto;547;9;6;2;3005623,49;64;4;0
2011;Vigentina;5;6400;7323;13723;2184;1643;195;100;3;93;22;11;131;324;521;1093;3341;Filippine;197;Sri Lanka (ex Ceylon);175;Egitto;155;4;3;2;1135239,32;39;0;0
2011;Villapizzone;71;19111;20081;39192;6076;11134;130;66;9;407;170;199;427;898;1716;2923;8434;Cinese, Repubblica Popolare;2157;Egitto;1661;Filippine;1635;11;8;3;3427070,6;84;0;902
2011;Washington;51;11845;14696;26541;4309;2859;125;56;6;240;69;51;292;502;876;2173;6508;Filippine;552;Francia;223;Perù;212;4;3;3;1306450,76;59;0;2440
2011;XXII Marzo;26;14292;16949;31241;4699;3169;271;144;9;250;82;54;302;662;1096;2351;7519;Filippine;557;Perù;258;Sri Lanka (ex Ceylon);226;5;3;3;1637499,71;68;0;1140
2011;N.D.;;0;0;0;0;0;0;0;0;58;30;40;0;0;0;0;0;;0;;0;;0;0;0;0;0;0;0;0
2012;Adriano;17;7773;7534;15307;2923;3083;6937;2772;240;166;78;56;93;358;735;513;2252;Filippine;506;Cinese, Repubblica Popolare;385;Egitto;359;4;1;0;2431560,11;34;0;1360
2012;Affori;80;12101;11963;24064;3947;6974;11575;4887;600;261;101;138;177;599;924;1273;4698;Cinese, Repubblica Popolare;1528;Egitto;1130;Filippine;994;5;3;2;2070893,65;21;2;1550
2012;Baggio;55;14205;15643;29848;4541;5068;14941;6671;978;237;116;88;357;786;848;2090;7789;Filippine;960;Perù;735;Egitto;571;7;3;2;3478599,96;55;0;0
2012;Bande Nere;52;19932;24016;43948;6052;6552;22278;10107;2145;321;104;84;682;1156;1325;4534;12705;Filippine;1387;Egitto;578;Perù;572;15;7;7;2663880,93;73;3;0
2012;Barona;46;8013;9164;17177;2330;2037;7943;3054;606;88;40;35;265;424;260;1374;5219;Egitto;508;Marocco;233;Filippine;195;3;3;1;2006324,59;59;0;1240
2012;Bicocca;15;3714;3643;7357;1316;1222;3413;1430;128;82;37;15;42;345;367;285;1161;Egitto;177;Filippine;157;Ecuador;102;0;0;0;1534521,13;39;3;3070
2012;Bovisa;77;6695;6312;13007;1917;4500;7043;3842;435;141;56;82;95;370;629;763;2345;Egitto;1091;Cinese, Repubblica Popolare;748;Filippine;506;4;2;1;1913132,63;27;1;3470
2012;Bovisasca;81;3538;3885;7423;1120;971;3377;1222;216;42;16;11;91;180;177;562;1913;Perù;123;Egitto;114;Cinese, Repubblica Popolare;93;3;1;1;1576826,44;23;0;0
2012;Brera;2;8292;9938;18230;2876;2666;9064;4046;609;160;51;33;151;638;720;1233;4142;Filippine;446;Sri Lanka (ex Ceylon);252;Francia;142;6;6;5;1637395,23;63;4;1354
2012;Bruzzano;83;6137;6312;12449;1961;2217;5912;2315;300;105;49;35;125;308;308;673;2832;Egitto;335;Perù;248;Romania;199;3;2;1;1667691,29;21;1;0
2012;Buenos Aires - Venezia;21;29122;33214;62336;9175;8583;30800;13646;2089;506;199;104;508;1800;2188;4350;14034;Filippine;1435;Sri Lanka (ex Ceylon);576;Egitto;561;10;5;4;2877542,27;119;5;1220
2012;Cantalupa;47;242;229;471;71;74;236;107;5;2;1;2;5;33;20;6;76;Egitto;13;Cinese, Repubblica Popolare;10;Bulgaria;8;0;0;0;926716,81;2;0;1460
2012;Cascina Triulza - Expo;73;391;76;467;19;45;26;10;0;1;1;1;2;72;112;0;17;Cinese, Repubblica Popolare;10;Marocco;7;Romania;7;0;0;0;1729126,9;1;0;2204
2012;Centrale;10;9042;8874;17916;2536;4470;8667;3840;500;146;50;70;149;608;945;1119;3636;Filippine;642;Bangladesh;607;Cinese, Repubblica Popolare;537;3;3;3;1556077,52;65;5;878
2012;Chiaravalle;34;598;557;1155;155;167;537;236;24;7;2;2;9;27;39;51;220;Bangladesh;28;Sri Lanka (ex Ceylon);19;Filippine;17;1;0;0;311640,12;4;0;0
2012;Città Studi;22;17049;20016;37065;4931;5859;18663;8534;1602;304;101;86;447;1067;1349;3260;9515;Filippine;868;Perù;655;Egitto;439;7;9;6;2207487,44;88;2;564
2012;Comasina;82;4727;4868;9595;1704;3097;4513;1939;352;85;38;51;90;292;366;703;1970;Cinese, Repubblica Popolare;907;Egitto;416;Perù;304;3;2;2;926734,56;24;1;0
2012;Corsica;25;8687;10416;19103;2567;2952;9468;4177;759;160;52;37;212;514;641;1650;4816;Filippine;663;Perù;261;Ecuador;217;6;3;2;1081329,7;35;2;1930
2012;De Angeli - Monte Rosa;58;9396;11573;20969;3200;2774;10479;4830;830;157;56;33;208;590;714;1788;5277;Filippine;427;Francia;318;Perù;190;3;2;3;1323078,54;249;2;1550
2012;Dergano;79;11589;10493;22082;3533;7509;10812;5102;553;211;86;106;169;559;1022;1151;3864;Egitto;1696;Cinese, Repubblica Popolare;1443;Filippine;846;3;3;3;1358615,04;29;3;325
2012;Duomo;1;8155;9063;17218;2727;2557;8454;3871;533;155;51;37;142;691;795;1075;3758;Filippine;483;Sri Lanka (ex Ceylon);292;Perù;148;4;4;3;2341704,07;106;8;0
2012;Ex OM - Morivione;37;3693;4149;7842;1333;1311;3639;1568;193;87;29;18;131;232;294;553;1623;Filippine;235;Egitto;177;Sri Lanka (ex Ceylon);156;2;1;1;817976,68;10;0;510
2012;Farini;78;2097;1876;3973;566;1424;1919;881;83;39;16;25;27;152;227;158;614;Egitto;376;Cinese, Repubblica Popolare;245;Filippine;176;0;0;0;1010230,89;17;0;325
2012;Figino;63;853;892;1745;273;282;886;413;46;17;5;6;20;60;36;100;347;Romania;64;Sri Lanka (ex Ceylon);44;Egitto;33;2;2;1;1424713,85;11;0;0
2012;Forze Armate;56;11334;12661;23995;3511;3966;12075;5515;798;177;82;69;260;666;679;1642;6096;Filippine;723;Egitto;552;Perù;431;7;5;2;3206902,39;66;2;0
2012;Gallaratese;65;15447;17543;32990;4412;2756;16761;7398;1351;203;83;68;376;850;671;3075;11591;Perù;321;Romania;296;Filippine;293;6;6;3;3894538,21;87;5;2570
2012;Garibaldi Repubblica;9;2506;2835;5341;709;801;2641;1205;184;38;19;9;45;207;228;364;1131;Perù;106;Cinese, Repubblica Popolare;76;Sri Lanka (ex Ceylon);56;1;0;0;785668,25;27;2;1290
2012;Ghisolfa;70;8121;9235;17356;2672;2973;8576;3731;717;180;67;59;189;485;575;1449;3961;Cinese, Repubblica Popolare;563;Filippine;509;Perù;274;0;0;0;1051452,21;32;0;203
2012;Giambellino;49;15206;16807;32013;4946;7908;16301;7786;1218;310;121;155;293;932;1205;2341;7298;Egitto;1857;Filippine;1262;Sri Lanka (ex Ceylon);630;2;2;2;1965274,21;57;4;1890
2012;Giardini Porta Venezia;3;27;30;57;15;12;27;8;0;1;1;1;0;1;1;1;5;Filippine;7;Sri Lanka (ex Ceylon);2;Brasile;1;1;0;0;249646,83;3;0;0
2012;Gratosoglio - Ticinello;41;9078;9936;19014;3038;2605;8770;3258;575;104;49;31;209;498;425;1446;5652;Egitto;419;Filippine;305;Marocco;255;3;4;2;3312818,32;37;0;2153
2012;Greco;13;7349;7800;15149;2309;3640;7398;3299;593;123;42;52;129;464;629;1224;3441;Filippine;740;Cinese, Repubblica Popolare;508;Egitto;422;2;2;2;1768669,43;35;0;3460
2012;Guastalla;4;7016;8296;15312;2284;2193;7549;3343;522;111;38;21;162;486;631;1125;3650;Filippine;441;Sri Lanka (ex Ceylon);347;Perù;122;6;7;9;1548020,74;52;2;0
2012;Isola;11;10963;11671;22634;3179;4433;11133;4974;736;213;88;64;195;723;968;1498;4732;Egitto;647;Cinese, Repubblica Popolare;623;Filippine;553;3;2;2;1322966,34;53;1;285
2012;Lambrate;23;5170;5365;10535;1772;2162;5060;2324;294;124;46;38;133;359;420;675;2003;Filippine;418;Egitto;341;Perù;173;4;4;2;3096861,87;39;0;1595
2012;Lodi - Corvetto;35;17604;18684;36288;5104;9040;18132;8245;1449;298;122;149;470;1018;1461;2977;8950;Filippine;1511;Egitto;1491;Perù;786;9;7;4;3639092,52;54;4;1680
2012;Lorenteggio;53;6185;7068;13253;2024;1819;6254;2429;634;81;26;27;211;308;350;1428;3826;Egitto;394;Filippine;199;Perù;144;5;4;2;2635327,1;44;0;2100
2012;Loreto;20;22936;21510;44446;6213;15444;21639;9764;1165;402;142;223;306;1464;2500;2391;7799;Egitto;2944;Filippine;2755;Cinese, Repubblica Popolare;1431;8;5;3;1747565,53;56;2;640
2012;Maciachini - Maggiolina;12;12488;13896;26384;3761;5373;13278;6120;1047;209;76;85;235;718;952;2119;6259;Filippine;1045;Cinese, Repubblica Popolare;759;Egitto;537;9;3;2;1674980,95;51;1;458
2012;Magenta - S. Vittore;7;8129;9532;17661;3039;2287;8495;3476;580;134;38;21;160;563;603;1203;3868;Filippine;384;Francia;322;Sri Lanka (ex Ceylon);293;6;6;4;1390146,88;58;4;1840
2012;Maggiore - Musocco;72;2384;2535;4919;756;745;2706;1280;179;53;19;12;34;161;121;308;1276;Perù;106;Ecuador;88;Egitto;88;2;2;1;3030188,71;47;0;0
2012;Mecenate;30;8805;10331;19136;2798;2826;9616;4229;1011;142;53;47;263;469;453;2219;5866;Perù;409;Filippine;322;Egitto;278;4;4;2;3821389,97;86;0;1940
2012;Muggiano;54;1525;1540;3065;754;204;1333;513;37;45;14;6;13;72;84;62;308;Egitto;35;Ecuador;30;Perù;23;1;1;0;444218,42;7;0;1040
2012;Navigli;44;8127;9179;17306;2437;2656;8645;4189;532;192;91;49;137;620;828;1094;3454;Egitto;304;Filippine;301;Perù;213;4;1;0;1483927,87;58;2;8020
2012;Niguarda - Cà Granda;14;17354;19448;36802;5293;4829;18483;8266;1499;284;120;85;418;925;1014;3133;10263;Egitto;686;Perù;505;Filippine;392;10;6;4;4251281,95;115;0;859
2012;Ortomercato;29;2105;2032;4137;577;1459;2093;1021;170;29;7;21;44;151;191;333;940;Egitto;371;Filippine;241;Romania;140;1;1;0;1402519,65;15;0;1400
2012;Padova;19;18024;18416;36440;5124;12012;18022;8157;1239;336;138;214;351;1155;1683;2605;8101;Filippine;2516;Egitto;2116;Cinese, Repubblica Popolare;1157;6;4;3;2061945,5;49;2;650
2012;Pagano;68;7985;9232;17217;3188;1884;8203;3481;635;137;36;24;152;476;472;1326;3939;Filippine;325;Francia;168;Sri Lanka (ex Ceylon);168;2;2;2;1289734,29;53;1;1887
2012;Parco Agricolo Sud;87;159;148;307;70;30;124;53;6;2;1;0;1;20;17;9;36;Paesi Bassi;8;Croazia;4;Serbia, Repubblica di, Repubblica di;4;0;0;0;5844580,12;1;0;2750
2012;Parco Bosco in Città;88;289;245;534;137;255;231;113;5;14;9;7;3;172;61;11;61;Kosovo;70;Macedonia, Repubblica di, Repubblica di;51;Romania;22;0;0;0;7837668,61;22;0;100
2012;Parco dei Navigli;86;163;138;301;62;51;137;69;5;2;0;1;4;19;24;8;29;Bulgaria;10;Romania;10;Albania;8;0;0;0;3617836,27;2;0;0
2012;Parco delle Abbazie;85;264;218;482;131;233;213;106;4;9;2;5;2;21;25;8;43;Romania;92;Montenegro;63;Bosnia-Erzegovina;41;0;0;0;13722000;22;0;1940
2012;Parco Forlanini - Ortica;24;544;466;1010;150;309;536;286;27;11;5;3;7;53;86;38;127;Egitto;53;Romania;42;Marocco;33;0;0;0;2925814,52;16;1;3800
2012;Parco Lambro - Cimiano;18;9196;10779;19975;2729;3101;10094;4541;1038;156;50;58;282;545;602;2092;5782;Filippine;615;Perù;413;Egitto;320;7;4;3;4971969,5;61;3;1940
2012;Parco Monlué - Ponte Lambro;31;2615;2441;5056;993;1796;2245;1031;88;43;15;25;33;208;274;145;697;Egitto;306;Ecuador;210;Filippine;176;1;1;0;2639289,21;21;0;3430
2012;Parco Nord;84;73;62;135;19;42;62;33;2;1;0;0;0;7;1;2;15;Cinese, Repubblica Popolare;8;Sri Lanka (ex Ceylon);6;Egitto;4;1;1;0;1533639,39;12;0;1200
2012;Parco Sempione;8;3;0;3;2;0;1;0;0;0;0;0;0;0;0;0;0; ;0; ;0; ;0;0;0;0;470434,33;8;0;1350
2012;Porta Romana;27;7830;8819;16649;2295;2085;8356;3800;537;156;57;39;147;543;641;1048;3479;Filippine;372;Sri Lanka (ex Ceylon);138;Cinese, Repubblica Popolare;130;1;2;1;1002793,53;36;1;420
2012;Portello;67;3612;4129;7741;1062;785;3913;1737;399;56;20;12;86;167;222;799;2186;Filippine;122;Perù;113;Cinese, Repubblica Popolare;53;3;3;0;909636,6;22;0;0
2012;QT 8;66;1856;2248;4104;621;430;1974;815;229;40;9;10;61;101;82;466;1108;Filippine;64;Sri Lanka (ex Ceylon);54;Perù;41;3;2;1;1024437,42;18;1;917
2012;Quarto Cagnino;61;4677;4933;9610;1434;939;4621;1894;242;53;23;18;83;173;198;554;2506;Egitto;178;Perù;112;Cinese, Repubblica Popolare;96;3;1;1;986391,48;29;0;630
2012;Quarto Oggiaro;76;15442;16644;32086;5308;6981;15726;6921;1156;260;128;116;376;876;850;2435;7300;Cinese, Repubblica Popolare;1532;Egitto;958;Filippine;622;7;5;3;2778263,75;47;2;840
2012;Quinto Romano;62;2422;2515;4937;692;448;2380;976;115;32;11;8;51;130;88;232;1102;Egitto;67;Filippine;50;Perù;49;1;1;0;1645859,77;19;0;1680
2012;Quintosole;39;509;174;683;72;121;177;96;6;2;1;2;5;66;78;10;80;Albania;31;Egitto;24;Romania;20;0;0;0;1057528,77;4;0;0
2012;Ripamonti;38;6718;7091;13809;2129;1659;6611;2537;385;109;45;31;125;328;428;809;3504;Filippine;199;Egitto;173;Sri Lanka (ex Ceylon);161;4;2;1;1853233,5;34;0;930
2012;Rogoredo;33;4766;4538;9304;1758;1619;4573;2034;205;129;29;28;60;257;391;379;1312;Egitto;226;Perù;210;Romania;140;2;1;1;1200161,64;8;0;0
2012;Ronchetto delle Rane;40;402;378;780;196;127;313;95;14;6;1;3;1;12;5;26;88;Egitto;45;Filippine;20;Perù;14;0;0;0;188870,6;1;0;0
2012;Ronchetto sul Naviglio;48;7082;7688;14770;2002;1865;7451;3223;455;100;35;37;155;401;451;985;4104;Egitto;357;Perù;235;Filippine;209;4;4;3;2406775,2;39;0;4430
2012;S. Cristoforo;45;6387;6809;13196;1933;2434;7106;3653;398;105;41;29;126;407;512;776;2969;Egitto;534;Filippine;281;Perù;200;5;1;1;1596174,14;37;0;4200
2012;S. Siro;60;6354;6814;13168;2506;2696;5902;1998;352;88;28;27;115;353;415;875;2869;Francia;671;Filippine;381;Perù;189;7;9;4;3435307,37;65;0;0
2012;Sacco;74;141;117;258;39;45;119;45;2;3;2;0;0;12;2;10;48;Cinese, Repubblica Popolare;23;Filippine;5;Ecuador;3;0;0;0;708465,8;4;0;2204
2012;Sarpi;69;13806;16062;29868;4641;5382;14667;6736;997;303;126;100;267;841;1146;2058;6228;Cinese, Repubblica Popolare;1948;Filippine;608;Perù;262;4;4;3;1811914,53;70;0;0
2012;Scalo Romana;36;5952;5434;11386;1633;3763;5636;2700;235;115;48;65;68;382;664;465;1968;Egitto;749;Filippine;603;Sri Lanka (ex Ceylon);315;0;1;0;1736727,98;26;0;2000
2012;Selinunte;57;12697;13683;26380;4030;8775;13570;6765;1116;196;63;129;330;741;942;2077;6013;Egitto;2617;Filippine;1202;Marocco;686;2;1;1;984925,54;47;0;0
2012;Stadera;42;14699;15435;30134;4646;5818;15837;7683;1085;285;98;101;272;900;1163;2106;6791;Filippine;999;Egitto;904;Perù;410;9;5;3;3232237,35;47;1;2600
2012;Stephenson;75;32;24;56;4;12;27;12;1;0;0;0;0;3;0;2;13;Cinese, Repubblica Popolare;8;Brasile;3;Perù;1;0;0;0;560097,89;0;0;0
2012;Tibaldi;43;5668;6232;11900;1494;2074;6276;3155;538;91;38;27;107;360;493;967;2953;Egitto;397;Filippine;291;Perù;180;2;1;1;786214,31;22;0;0
2012;Ticinese;6;9440;10733;20173;2735;2586;10114;4767;617;158;55;41;188;644;818;1249;4320;Filippine;346;Egitto;320;Sri Lanka (ex Ceylon);178;8;3;2;1255064,75;37;0;184
2012;Tortona;50;6869;8306;15175;2319;1418;7350;3044;566;121;44;25;159;419;448;1163;3724;Filippine;224;Sri Lanka (ex Ceylon);111;Egitto;89;4;2;0;996786,39;23;1;730
2012;Tre Torri;59;615;731;1346;244;165;631;260;59;14;5;4;10;39;43;112;319;Francia;26;Filippine;21;Stati Uniti d'America;10;0;0;0;513316,34;14;0;780
2012;Trenno;64;2152;2078;4230;552;300;1989;785;96;20;7;2;38;220;166;200;1015;Afghanistan;30;Eritrea;21;Filippine;20;2;0;0;489710,56;13;0;225
2012;Triulzo Superiore;32;908;600;1508;243;1042;823;511;15;16;8;13;8;67;136;29;110;Egitto;292;Sri Lanka (ex Ceylon);156;Perù;117;0;0;0;1395022,03;14;1;0
2012;Umbria - Molise;28;10724;12020;22744;3169;4664;11329;5218;915;208;79;74;229;597;733;1837;5414;Filippine;813;Egitto;717;Perù;358;3;1;1;1192396,73;43;1;2910
2012;Viale Monza;16;13652;14279;27931;4149;6394;14105;6501;805;218;66;88;222;843;1133;1637;6143;Filippine;1421;Perù;695;Egitto;659;9;6;2;3005623,49;64;4;0
2012;Vigentina;5;6498;7426;13924;2184;1758;6557;2698;499;103;33;17;125;343;516;1124;3375;Filippine;204;Sri Lanka (ex Ceylon);189;Egitto;173;4;3;2;1135239,32;39;0;0
2012;Villapizzone;71;19799;20545;40344;6339;12389;19909;9009;1471;412;151;224;468;1075;1590;2941;8447;Cinese, Repubblica Popolare;2418;Egitto;1863;Filippine;1823;11;8;3;3427070,6;84;0;902
2012;Washington;51;11981;14872;26853;4337;3032;13577;6227;1099;235;66;45;263;808;979;2201;6573;Filippine;579;Perù;231;Francia;228;4;3;3;1306450,76;59;0;2440
2012;XXII Marzo;26;14343;17019;31362;4679;3368;15502;6918;1141;283;106;62;321;909;857;2354;7604;Filippine;572;Perù;282;Sri Lanka (ex Ceylon);223;5;3;3;1637499,71;68;0;1140
2012;N.D.;;0;0;0;0;0;0;0;0;99;49;58;0;0;0;0;0; ;0; ;0; ;0;0;0;0;0;0;0;0
2013;Adriano;17;7912;7608;15520;2998;3137;7008;2792;261;182;65;61;71;517;730;553;2341;Filippine;531;Egitto;409;Cinese, Repubblica Popolare;390;4;1;0;2431560,11;34;0;1360
2013;Affori;80;12043;11956;23999;3973;7019;11592;4898;632;230;89;127;191;956;1067;1321;4724;Cinese, Repubblica Popolare;1587;Egitto;1140;Filippine;1008;5;3;2;2070893,65;21;2;1550
2013;Baggio;55;13911;15384;29295;4508;5061;14650;6543;1027;229;100;105;295;1201;1025;2184;7764;Filippine;968;Perù;713;Egitto;593;7;3;2;3478599,96;55;0;0
2013;Bande Nere;52;19764;23672;43436;6032;6678;22044;10009;2170;317;116;106;614;1601;1518;4576;12543;Filippine;1447;Perù;601;Egitto;585;15;7;7;2663880,93;73;3;0
2013;Barona;46;7962;9012;16974;2323;2137;7898;3078;627;87;44;44;243;460;381;1419;5247;Egitto;536;Marocco;234;Filippine;219;3;3;1;2006324,59;59;0;1240
2013;Bicocca;15;3840;3723;7563;1316;1266;3562;1511;134;71;27;17;38;336;507;295;1187;Egitto;188;Filippine;170;Ecuador;99;0;0;0;1534521,13;39;3;3070
2013;Bovisa;77;6669;6325;12994;1926;4637;7017;3816;438;140;48;84;89;705;768;775;2347;Egitto;1166;Cinese, Repubblica Popolare;721;Filippine;533;4;2;1;1913132,63;27;1;3470
2013;Bovisasca;81;3439;3824;7263;1097;978;3317;1228;237;45;20;11;112;234;176;620;1955;Perù;121;Egitto;117;Cinese, Repubblica Popolare;95;3;1;1;1576826,44;23;0;0
2013;Brera;2;8158;9693;17851;2795;2611;8907;4034;602;140;42;23;175;921;798;1217;4139;Filippine;431;Sri Lanka (ex Ceylon);235;Francia;134;6;6;5;1637395,23;63;4;1354
2013;Bruzzano;83;6168;6396;12564;2012;2311;6005;2362;331;114;43;52;101;430;420;734;2885;Egitto;373;Perù;267;Ecuador;199;3;2;1;1667691,29;21;1;0
2013;Buenos Aires - Venezia;21;28699;32818;61517;9120;8401;30475;13490;2082;516;189;119;569;2510;2450;4309;14038;Filippine;1378;Sri Lanka (ex Ceylon);560;Cinese, Repubblica Popolare;541;10;5;4;2877542,27;119;5;1220
2013;Cantalupa;47;238;229;467;77;71;229;103;3;7;5;2;2;25;12;5;80;Egitto;18;Cinese, Repubblica Popolare;8;Perù;7;0;0;0;926716,81;2;0;1460
2013;Cascina Triulza - Expo;73;441;71;512;13;66;27;13;0;1;1;1;3;62;151;0;18;Marocco;19;Romania;12;Albania;7;0;0;0;1729126,9;1;0;2204
2013;Centrale;10;8924;8669;17593;2455;4356;8549;3800;509;128;54;42;149;965;990;1107;3606;Bangladesh;642;Filippine;605;Cinese, Repubblica Popolare;528;3;3;3;1556077,52;65;5;878
2013;Chiaravalle;34;579;539;1118;147;152;529;221;23;4;2;3;11;36;28;48;220;Sri Lanka (ex Ceylon);21;Bangladesh;19;Filippine;17;1;0;0;311640,12;4;0;0
2013;Città Studi;22;16756;19707;36463;4895;5919;18381;8385;1593;257;89;91;395;1410;1389;3229;9383;Filippine;892;Perù;615;Egitto;430;7;8;5;2207487,44;88;2;564
2013;Comasina;82;4681;4757;9438;1704;3114;4443;1877;344;107;49;69;101;456;385;660;1918;Cinese, Repubblica Popolare;906;Egitto;416;Perù;301;3;2;2;926734,56;24;1;0
2013;Corsica;25;8661;10330;18991;2652;2944;9378;4121;766;159;44;47;208;699;706;1646;4754;Filippine;683;Perù;267;Ecuador;191;6;3;3;1081329,7;35;2;1930
2013;De Angeli - Monte Rosa;58;9316;11439;20755;3201;2746;10388;4783;826;167;48;40;239;774;852;1741;5193;Filippine;425;Francia;299;Perù;210;3;2;3;1323078,54;249;2;1550
2013;Dergano;79;11684;10501;22185;3597;7773;10829;5070;552;218;92;108;161;1107;1287;1161;3872;Egitto;1795;Cinese, Repubblica Popolare;1479;Filippine;914;3;3;3;1358615,04;29;3;325
2013;Duomo;1;7904;8726;16630;2618;2374;8199;3742;518;136;47;30;140;1091;837;1052;3707;Filippine;461;Sri Lanka (ex Ceylon);291;Perù;139;4;4;3;2341704,07;106;8;0
2013;Ex OM - Morivione;37;3707;4090;7797;1322;1373;3605;1545;199;77;18;24;125;286;356;568;1643;Filippine;245;Egitto;184;Sri Lanka (ex Ceylon);146;3;2;1;817976,68;10;0;510
2013;Farini;78;2111;1863;3974;563;1463;1944;882;82;48;20;26;27;243;287;156;611;Egitto;368;Cinese, Repubblica Popolare;270;Filippine;168;0;0;0;1010230,89;17;0;325
2013;Figino;63;848;880;1728;269;303;862;396;46;14;5;7;17;47;63;99;353;Romania;67;Sri Lanka (ex Ceylon);56;Egitto;43;2;2;1;1424713,85;11;0;0
2013;Forze Armate;56;11246;12539;23785;3482;4039;12008;5480;819;165;67;64;254;880;808;1675;6158;Filippine;793;Egitto;534;Perù;448;7;5;2;3206902,39;66;2;0
2013;Gallaratese;65;15188;17328;32516;4345;2835;16548;7322;1442;196;72;59;431;802;782;3296;11480;Perù;342;Romania;324;Filippine;296;6;6;3;3894538,21;87;5;2570
2013;Garibaldi Repubblica;9;2464;2730;5194;687;767;2537;1174;176;53;21;20;45;295;279;359;1105;Perù;95;Cinese, Repubblica Popolare;91;Sri Lanka (ex Ceylon);53;1;0;0;785668,25;27;2;1290
2013;Ghisolfa;70;8159;9178;17337;2691;3137;8613;3769;708;150;59;50;186;632;690;1425;3901;Cinese, Repubblica Popolare;616;Filippine;558;Egitto;278;0;0;0;1051452,21;32;0;203
2013;Giambellino;49;15122;16714;31836;5063;8180;16260;7771;1236;309;116;153;332;1247;1405;2336;7229;Egitto;1936;Filippine;1324;Sri Lanka (ex Ceylon);662;2;2;2;1965274,21;57;4;1890
2013;Giardini Porta Venezia;3;23;24;47;6;8;20;8;0;1;1;0;0;5;2;1;6;Filippine;5;Sri Lanka (ex Ceylon);2;Stati Uniti d'America;1;1;0;0;249646,83;3;0;0
2013;Gratosoglio - Ticinello;41;8935;9784;18719;2922;2652;8662;3265;625;95;48;24;207;544;441;1560;5595;Egitto;438;Filippine;312;Marocco;253;3;4;2;3312818,32;37;0;2153
2013;Greco;13;7364;7773;15137;2367;3726;7432;3279;593;137;50;69;136;673;784;1227;3417;Filippine;814;Cinese, Repubblica Popolare;548;Egitto;450;2;2;2;1768669,43;35;0;3460
2013;Guastalla;4;6831;8108;14939;2255;2047;7371;3215;524;109;32;21;137;696;602;1111;3662;Filippine;428;Sri Lanka (ex Ceylon);340;Perù;116;6;7;9;1548020,74;52;2;0
2013;Isola;11;10795;11478;22273;3115;4338;10982;4884;725;208;80;51;192;1257;1175;1493;4707;Cinese, Repubblica Popolare;646;Egitto;620;Filippine;570;3;2;2;1322966,34;53;1;285
2013;Lambrate;23;5195;5407;10602;1801;2189;5067;2331;293;104;35;34;103;421;452;704;2044;Filippine;440;Egitto;324;Perù;167;5;4;2;3096861,87;39;0;1595
2013;Lodi - Corvetto;35;17465;18698;36163;5287;9341;18089;8223;1469;320;119;155;421;1646;1743;2989;8865;Filippine;1588;Egitto;1580;Perù;834;9;7;4;3639092,52;54;4;1680
2013;Lorenteggio;53;6254;7068;13322;2081;1893;6271;2438;639;91;38;27;158;383;482;1462;3809;Egitto;430;Filippine;220;Perù;145;5;5;2;2635327,1;44;0;2100
2013;Loreto;20;22914;21371;44285;6248;15708;21595;9726;1163;412;170;264;369;2643;2948;2383;7790;Egitto;3019;Filippine;2791;Cinese, Repubblica Popolare;1493;7;5;3;1747565,53;56;2;640
2013;Maciachini - Maggiolina;12;12330;13676;26006;3706;5402;13063;6007;1043;209;87;97;283;1025;1016;2117;6185;Filippine;1017;Cinese, Repubblica Popolare;831;Egitto;578;8;3;2;1674980,95;51;1;458
2013;Magenta - S. Vittore;7;7981;9250;17231;2968;2108;8310;3398;579;146;42;28;151;845;771;1195;3877;Filippine;353;Sri Lanka (ex Ceylon);278;Francia;265;6;6;4;1390146,88;58;4;1840
2013;Maggiore - Musocco;72;2357;2531;4888;774;772;2700;1272;184;49;21;17;49;143;163;312;1284;Perù;111;Ecuador;90;Egitto;89;2;2;1;3030188,71;47;0;0
2013;Mecenate;30;8684;10156;18840;2782;2888;9508;4201;1051;140;58;48;285;593;528;2260;5704;Perù;413;Filippine;328;Egitto;292;5;4;2;3821389,97;86;0;1940
2013;Muggiano;54;1512;1516;3028;742;194;1337;520;38;32;14;5;11;77;78;70;315;Egitto;32;Ecuador;24;Perù;23;1;1;0;444218,42;7;0;1040
2013;Navigli;44;8026;9012;17038;2424;2516;8573;4134;526;182;78;51;153;875;857;1074;3418;Egitto;304;Filippine;278;Perù;203;4;1;0;1483927,87;58;2;8020
2013;Niguarda - Cà Granda;14;17330;19376;36706;5329;5161;18452;8247;1509;263;107;99;445;1173;1172;3152;10187;Egitto;746;Perù;537;Filippine;444;10;6;4;4251281,95;115;0;859
2013;Ortomercato;29;2114;2038;4152;594;1541;2052;988;155;35;10;26;42;177;211;318;922;Egitto;405;Filippine;254;Perù;134;1;1;0;1402519,65;15;0;1400
2013;Padova;19;17920;18252;36172;5195;12280;17895;8085;1257;313;117;204;345;1841;1896;2637;7995;Filippine;2630;Egitto;2209;Perù;1179;7;4;3;2061945,5;49;2;650
2013;Pagano;68;7889;9078;16967;3161;1817;8090;3439;622;140;32;28;146;608;582;1324;3931;Filippine;316;Sri Lanka (ex Ceylon);185;Francia;156;2;2;2;1289734,29;53;1;1887
2013;Parco Agricolo Sud;87;165;157;322;74;32;135;56;7;5;4;1;1;9;32;10;38;Paesi Bassi;9;Serbia, Repubblica di, Repubblica di;5;Romania;3;0;0;0;5844580,12;1;0;2750
2013;Parco Bosco in Città;88;224;233;457;117;187;221;113;9;5;3;2;1;53;70;12;64;Kosovo;58;Macedonia, Repubblica di, Repubblica di;43;Romania;21;0;0;0;7837668,61;22;0;100
2013;Parco dei Navigli;86;175;130;305;60;47;134;65;3;5;3;3;5;18;21;4;25;Romania;11;Bulgaria;9;Albania;8;0;0;0;3617836,27;2;0;0
2013;Parco delle Abbazie;85;262;212;474;130;221;219;111;9;12;8;6;3;20;31;10;41;Romania;79;Montenegro;63;Bosnia-Erzegovina;38;0;0;0;13722000;22;0;1940
2013;Parco Forlanini - Ortica;24;538;450;988;149;309;526;286;28;4;0;3;6;68;59;37;126;Egitto;57;Romania;44;Marocco;29;0;0;0;2925814,52;16;1;3800
2013;Parco Lambro - Cimiano;18;9112;10604;19716;2695;3064;10001;4470;1054;118;49;42;256;658;693;2104;5748;Filippine;605;Perù;415;Egitto;294;7;4;3;4971969,5;61;3;1940
2013;Parco Monlué - Ponte Lambro;31;2653;2427;5080;1005;1818;2258;1005;88;57;23;36;25;346;303;161;707;Egitto;311;Ecuador;201;Perù;182;1;1;0;2639289,21;21;0;3430
2013;Parco Nord;84;64;64;128;22;43;58;29;2;0;0;0;0;15;9;3;14;Egitto;8;Cinese, Repubblica Popolare;7;Ucraina;5;1;1;0;1533639,39;12;0;1200
2013;Parco Sempione;8;3;0;3;1;0;1;0;0;0;0;0;0;0;0;0;0;;0;;0;;0;0;0;0;470434,33;8;0;1350
2013;Porta Romana;27;7688;8659;16347;2262;1994;8231;3744;551;148;55;35;149;673;770;1047;3458;Filippine;367;Cinese, Repubblica Popolare;135;Perù;125;1;2;1;1002793,53;36;1;420
2013;Portello;67;3601;4135;7736;1082;813;3890;1726;393;45;25;8;72;189;226;794;2189;Filippine;127;Perù;113;Cinese, Repubblica Popolare;64;3;3;1;909636,6;22;0;0
2013;QT 8;66;1821;2196;4017;615;421;1943;811;227;30;9;2;64;123;112;453;1077;Filippine;62;Sri Lanka (ex Ceylon);45;Ucraina;35;3;2;1;1024437,42;18;1;917
2013;Quarto Cagnino;61;4605;4848;9453;1411;927;4552;1845;254;55;23;15;95;205;231;609;2505;Egitto;176;Perù;108;Filippine;100;3;1;1;986391,48;29;0;630
2013;Quarto Oggiaro;76;15096;16266;31362;5160;6952;15397;6775;1158;224;102;108;376;1154;921;2447;7220;Cinese, Repubblica Popolare;1529;Egitto;969;Filippine;628;7;5;3;2778263,75;47;2;840
2013;Quinto Romano;62;2386;2481;4867;665;456;2363;958;116;22;10;7;29;126;118;248;1134;Egitto;79;Perù;53;Filippine;50;1;1;0;1645859,77;19;0;1680
2013;Quintosole;39;573;171;744;75;135;174;98;7;7;0;6;9;74;148;9;89;Albania;36;Egitto;29;Romania;18;0;0;0;1057528,77;4;0;0
2013;Ripamonti;38;6696;7071;13767;2134;1707;6629;2507;404;114;33;29;97;425;507;855;3550;Filippine;211;Egitto;174;Sri Lanka (ex Ceylon);164;4;2;1;1853233,5;34;0;930
2013;Rogoredo;33;4830;4552;9382;1837;1718;4599;2055;198;153;44;53;62;363;433;376;1332;Egitto;220;Perù;211;Filippine;154;2;1;1;1200161,64;8;0;0
2013;Ronchetto delle Rane;40;412;374;786;192;132;317;97;15;5;5;0;1;11;13;28;94;Egitto;45;Filippine;23;Perù;15;0;0;0;188870,6;1;0;0
2013;Ronchetto sul Naviglio;48;6997;7625;14622;2062;1874;7402;3201;493;128;50;41;155;489;433;1050;4108;Egitto;385;Perù;225;Filippine;209;4;4;3;2406775,2;39;0;4430
2013;S. Cristoforo;45;6311;6766;13077;1950;2428;7022;3583;399;132;53;54;128;523;543;775;2996;Egitto;536;Filippine;289;Perù;185;5;1;1;1596174,14;37;0;4200
2013;S. Siro;60;6237;6656;12893;2387;2594;5851;2011;362;77;32;25;115;559;505;876;2865;Francia;604;Filippine;364;Perù;183;6;8;4;3435307,37;65;0;0
2013;Sacco;74;138;111;249;37;47;114;42;4;4;4;0;1;12;9;12;46;Cinese, Repubblica Popolare;23;Filippine;4;Ecuador;3;0;0;0;708465,8;4;0;2204
2013;Sarpi;69;13768;16009;29777;4722;5356;14580;6648;995;319;128;100;269;1241;1351;2055;6188;Cinese, Repubblica Popolare;1989;Filippine;589;Perù;261;4;4;3;1811914,53;70;0;0
2013;Scalo Romana;36;6071;5491;11562;1689;3983;5743;2776;247;116;44;66;75;599;945;484;1996;Egitto;837;Filippine;593;Sri Lanka (ex Ceylon);312;0;1;0;1736727,98;26;0;2000
2013;Selinunte;57;12689;13653;26342;4200;9136;13493;6693;1101;276;115;178;297;1380;1464;2049;5878;Egitto;2789;Filippine;1222;Marocco;722;2;1;0;984925,54;47;0;0
2013;Stadera;42;14750;15500;30250;4752;6059;15912;7648;1116;272;92;94;265;1058;1216;2171;6785;Filippine;1023;Egitto;926;Perù;424;8;5;3;3232237,35;47;1;2600
2013;Stephenson;75;34;25;59;6;12;27;11;1;2;0;0;0;2;4;3;13;Cinese, Repubblica Popolare;8;Brasile;3;Perù;1;0;0;0;560097,89;0;0;0
2013;Tibaldi;43;5599;6100;11699;1477;2092;6170;3115;529;97;40;29;118;534;554;951;2935;Egitto;409;Filippine;310;Perù;168;2;1;1;786214,31;22;0;0
2013;Ticinese;6;9314;10637;19951;2712;2555;10043;4698;612;168;61;40;159;868;963;1257;4337;Filippine;335;Egitto;306;Cinese, Repubblica Popolare;184;8;3;2;1255064,75;37;0;184
2013;Tortona;50;6790;8193;14983;2322;1431;7250;3010;569;128;49;29;158;522;505;1173;3686;Filippine;225;Sri Lanka (ex Ceylon);99;Egitto;97;4;2;0;996786,39;23;1;730
2013;Tre Torri;59;641;774;1415;272;193;652;270;64;8;3;4;15;48;37;120;326;Francia;31;Filippine;25;Perù;10;0;0;0;513316,34;14;0;780
2013;Trenno;64;2122;2044;4166;546;270;1972;779;96;23;10;0;29;178;202;205;1069;Pakistan;28;Filippine;20;Afghanistan;18;2;0;0;489710,56;13;0;225
2013;Triulzo Superiore;32;896;617;1513;257;1035;810;494;17;16;8;11;4;149;154;31;117;Egitto;264;Sri Lanka (ex Ceylon);167;Perù;114;0;0;0;1395022,03;14;1;0
2013;Umbria - Molise;28;10684;11910;22594;3192;4716;11290;5186;901;205;75;80;247;1030;1035;1819;5349;Filippine;830;Egitto;703;Perù;337;3;1;1;1192396,73;43;1;2910
2013;Viale Monza;16;13637;14243;27880;4201;6507;14150;6519;845;282;93;127;236;1154;1234;1729;6248;Filippine;1499;Perù;691;Egitto;674;9;6;2;1135239,32;39;0;0
2013;Vigentina;5;6396;7279;13675;2150;1701;6460;2670;516;104;34;21;129;621;591;1145;3358;Filippine;203;Sri Lanka (ex Ceylon);195;Egitto;169;4;3;3;3427070,6;84;0;902
2013;Villapizzone;71;19759;20482;40241;6403;12721;19886;8973;1478;373;148;201;413;1795;1906;2941;8416;Cinese, Repubblica Popolare;2528;Egitto;1889;Filippine;1867;11;8;3;3005623,49;64;4;0
2013;Washington;51;11757;14634;26391;4246;2913;13397;6124;1131;216;69;49;254;1009;857;2227;6550;Filippine;551;Perù;211;Francia;195;4;3;3;1306450,76;59;0;2440
2013;XXII Marzo;26;14078;16721;30799;4534;3210;15290;6838;1174;228;87;48;290;1220;1134;2420;7621;Filippine;565;Perù;277;Sri Lanka (ex Ceylon);198;5;3;3;1637499,71;68;0;1140
2014;Adriano;17;7966;7681;15647;3020;3171;7075;2818;279;161;64;57;87;564;535;576;2405;Filippine;561;Egitto;413;Cinese, Repubblica Popolare;374;3;1;0;2431560,11;34;0;1360
2014;Affori;80;12021;12017;24038;3999;6844;11672;4950;667;265;101;131;181;1066;938;1395;4793;Cinese, Repubblica Popolare;1644;Egitto;1067;Filippine;1020;6;3;2;2070893,65;21;2;1550
2014;Baggio;55;13987;15435;29422;4625;5098;14721;6593;1090;237;109;94;307;851;837;2312;7846;Filippine;1028;Perù;704;Egitto;564;7;3;2;3478599,96;55;0;0
2014;Bande Nere;52;19652;23638;43290;6077;6343;22025;10011;2243;337;117;111;565;1592;1510;4732;12542;Filippine;1553;Perù;567;Egitto;555;15;7;7;2663880,93;73;3;0
2014;Barona;46;7964;9057;17021;2357;2190;7921;3132;687;98;48;40;217;376;319;1507;5320;Egitto;544;Marocco;238;Filippine;226;3;3;1;2006324,59;59;0;1240
2014;Bicocca;15;4086;3952;8038;1410;1304;3827;1617;141;102;39;25;35;363;535;309;1247;Filippine;192;Egitto;189;Cinese, Repubblica Popolare;107;0;0;0;1534521,13;39;3;3070
2014;Bovisa;77;6609;6393;13002;1978;4527;7044;3833;440;136;56;73;91;656;609;777;2359;Egitto;1092;Cinese, Repubblica Popolare;756;Filippine;533;4;2;1;1913132,63;27;1;3470
2014;Bovisasca;81;3411;3811;7222;1091;935;3334;1234;255;53;19;18;100;190;157;640;1964;Perù;116;Egitto;111;Cinese, Repubblica Popolare;94;3;1;1;1576826,44;23;0;0
2014;Brera;2;8275;9574;17849;2848;2430;8938;4115;616;155;66;32;148;944;874;1224;4174;Filippine;404;Sri Lanka (ex Ceylon);221;Romania;137;6;6;5;1637395,23;63;4;1354
2014;Bruzzano;83;6176;6523;12699;2079;2290;6099;2385;341;139;64;58;106;415;340;795;2973;Egitto;363;Perù;249;Ecuador;204;3;2;1;1667691,29;21;1;0
2014;Buenos Aires - Venezia;21;28309;32571;60880;9113;7410;30288;13456;2142;479;174;125;510;2787;2384;4409;14170;Filippine;1344;Cinese, Repubblica Popolare;552;Sri Lanka (ex Ceylon);479;9;5;4;2877542,27;119;5;1220
2014;Cantalupa;47;250;237;487;82;77;252;118;4;4;1;1;2;8;26;6;83;Egitto;20;Cinese, Repubblica Popolare;9;Perù;7;0;0;0;926716,81;2;0;1460
2014;Cascina Triulza - Expo;73;552;75;627;14;81;22;8;0;0;0;0;1;93;185;0;27;Marocco;19;Romania;12;Albania;9;0;0;0;1729126,9;1;0;2204
2014;Centrale;10;8862;8594;17456;2446;4119;8457;3752;524;153;66;73;130;877;922;1124;3618;Bangladesh;681;Filippine;594;Cinese, Repubblica Popolare;512;3;3;3;1556077,52;65;5;878
2014;Chiaravalle;34;561;545;1106;147;149;528;214;24;5;3;1;12;45;22;51;231;Filippine;20;Bangladesh;19;Sri Lanka (ex Ceylon);19;1;0;0;311640,12;4;0;0
2014;Città Studi;22;16518;19619;36137;4938;5462;18240;8341;1617;291;108;78;382;1542;1294;3263;9356;Filippine;893;Perù;585;Sri Lanka (ex Ceylon);424;7;8;5;2207487,44;88;2;564
2014;Comasina;82;4649;4778;9427;1753;3033;4385;1885;369;89;41;57;82;350;297;674;1925;Cinese, Repubblica Popolare;887;Egitto;419;Perù;287;3;2;2;926734,56;24;1;0
2014;Corsica;25;8658;10286;18944;2668;2770;9390;4127;803;174;54;47;179;692;644;1709;4789;Filippine;659;Perù;263;Cinese, Repubblica Popolare;215;5;3;3;1081329,7;35;2;1930
2014;De Angeli - Monte Rosa;58;9238;11361;20599;3192;2458;10352;4741;819;134;48;23;216;961;786;1768;5163;Filippine;417;Francia;223;Perù;203;3;2;3;1323078,54;249;2;1550
2014;Dergano;79;11536;10679;22215;3705;7636;10861;5083;594;229;91;141;143;1023;1088;1242;3892;Egitto;1686;Cinese, Repubblica Popolare;1547;Filippine;983;3;3;3;1358615,04;29;3;325
2014;Duomo;1;7867;8535;16402;2614;2046;8073;3645;513;140;37;40;138;836;780;1051;3661;Filippine;431;Sri Lanka (ex Ceylon);270;Perù;123;4;4;3;2341704,07;106;8;0
2014;Ex OM - Morivione;37;3672;4031;7703;1327;1285;3548;1495;203;69;32;22;115;362;264;565;1667;Filippine;240;Egitto;167;Cinese, Repubblica Popolare;123;3;2;1;817976,68;10;0;510
2014;Farini;78;2064;1870;3934;559;1416;1924;853;77;36;14;20;27;219;243;155;619;Egitto;340;Cinese, Repubblica Popolare;306;Filippine;152;0;0;0;1010230,89;17;0;325
2014;Figino;63;834;870;1704;268;297;837;378;44;10;3;6;16;85;55;96;360;Romania;54;Sri Lanka (ex Ceylon);49;Egitto;37;2;2;1;1424713,85;11;0;0
2014;Forze Armate;56;11505;12787;24292;3624;4097;12313;5643;868;199;89;89;257;656;755;1758;6241;Filippine;818;Egitto;606;Perù;476;7;5;2;3206902,39;66;2;0
2014;Gallaratese;65;15136;17345;32481;4368;2845;16564;7385;1572;169;67;42;403;760;708;3572;11466;Romania;355;Perù;324;Filippine;319;6;6;3;3894538,21;87;5;2570
2014;Garibaldi Repubblica;9;2509;2766;5275;699;721;2599;1198;176;57;22;18;64;232;271;366;1124;Perù;97;Cinese, Repubblica Popolare;94;Sri Lanka (ex Ceylon);55;1;0;0;785668,25;27;2;1290
2014;Ghisolfa;70;8120;9131;17251;2720;2976;8546;3729;729;145;55;53;159;681;593;1439;3896;Cinese, Repubblica Popolare;618;Filippine;561;Egitto;275;0;0;0;1051452,21;32;0;203
2014;Giambellino;49;14986;16703;31689;5201;8004;16214;7714;1269;303;91;174;279;1306;1267;2385;7169;Egitto;1916;Filippine;1376;Sri Lanka (ex Ceylon);650;2;2;2;1965274,21;57;4;1890
2014;Giardini Porta Venezia;3;27;25;52;12;10;18;5;0;2;1;1;0;6;4;1;5;Sri Lanka (ex Ceylon);5;Filippine;3;Francia;1;1;0;0;249646,83;3;0;0
2014;Gratosoglio - Ticinello;41;8815;9814;18629;2912;2614;8622;3277;701;98;47;40;187;570;318;1702;5615;Egitto;432;Filippine;324;Marocco;255;3;4;2;3312818,32;37;0;2153
2014;Greco;13;7316;7793;15109;2352;3660;7424;3292;613;134;57;61;133;624;630;1263;3422;Filippine;815;Cinese, Repubblica Popolare;552;Egitto;424;2;2;2;1768669,43;35;0;3460
2014;Guastalla;4;6821;8071;14892;2280;1847;7387;3227;535;109;34;28;125;621;563;1146;3671;Filippine;402;Sri Lanka (ex Ceylon);307;Perù;99;6;7;9;1548020,74;52;2;0
2014;Isola;11;10843;11528;22371;3167;4104;11060;4968;728;235;95;80;195;979;1121;1498;4674;Cinese, Repubblica Popolare;644;Egitto;605;Filippine;545;3;2;2;1322966,34;53;1;285
2014;Lambrate;23;5099;5416;10515;1802;2026;5079;2336;317;91;35;22;123;470;371;740;2073;Filippine;420;Egitto;281;Perù;167;5;4;2;3096861,87;39;0;1595
2014;Lodi - Corvetto;35;17219;18679;35898;5363;9018;17987;8190;1536;309;113;157;409;1511;1333;3119;8848;Filippine;1610;Egitto;1458;Perù;848;9;7;4;3639092,52;54;4;1680
2014;Lorenteggio;53;6306;7064;13370;2084;1902;6332;2504;659;98;36;41;177;383;371;1482;3805;Egitto;444;Filippine;215;Romania;143;5;5;2;2635327,1;44;0;2100
2014;Loreto;20;22408;21365;43773;6332;15049;21416;9672;1200;427;146;220;339;2713;2417;2435;7827;Filippine;2842;Egitto;2794;Cinese, Repubblica Popolare;1609;7;5;3;1747565,53;56;2;640
2014;Maciachini - Maggiolina;12;12277;13657;25934;3773;5197;12997;5993;1065;212;95;80;239;972;996;2147;6213;Filippine;989;Cinese, Repubblica Popolare;887;Egitto;596;8;3;2;1674980,95;51;1;458
2014;Magenta - S. Vittore;7;7879;9194;17073;2955;1839;8244;3343;582;139;45;24;151;801;649;1221;3912;Filippine;344;Sri Lanka (ex Ceylon);237;Francia;200;6;6;4;1390146,88;58;4;1840
2014;Maggiore - Musocco;72;2374;2547;4921;801;762;2710;1258;179;51;17;17;41;158;127;326;1328;Perù;107;Egitto;92;Ecuador;85;2;2;1;3030188,71;47;0;0
2014;Mecenate;30;8729;10204;18933;2807;2911;9617;4289;1116;128;52;48;225;539;538;2359;5646;Perù;435;Filippine;363;Egitto;266;5;4;2;3821389,97;86;0;1940
2014;Muggiano;54;1517;1543;3060;743;205;1345;512;39;39;12;4;6;82;53;75;327;Egitto;31;Ecuador;29;Perù;25;1;1;0;444218,42;7;0;1040
2014;Navigli;44;7981;9015;16996;2440;2261;8537;4133;539;191;71;40;131;746;759;1087;3426;Egitto;269;Filippine;240;Perù;170;4;1;0;1483927,87;58;2;8020
2014;Niguarda - Cà Granda;14;17318;19402;36720;5402;5005;18464;8269;1568;271;115;74;414;1204;901;3288;10198;Egitto;734;Perù;522;Filippine;481;10;6;4;4251281,95;115;0;859
2014;Ortomercato;29;2109;2043;4152;627;1532;2063;996;160;48;18;29;31;216;217;318;906;Egitto;447;Filippine;237;Perù;133;1;1;0;1402519,65;15;0;1400
2014;Padova;19;17687;18336;36023;5307;12056;17854;8087;1321;335;142;216;299;1652;1519;2756;8015;Filippine;2698;Egitto;2129;Perù;1176;7;4;3;2061945,5;49;2;650
2014;Pagano;68;7883;8995;16878;3099;1589;8041;3416;646;107;39;19;141;550;500;1358;4001;Filippine;285;Sri Lanka (ex Ceylon);150;Francia;123;2;2;2;1289734,29;53;1;1887
2014;Parco Agricolo Sud;87;171;153;324;73;36;141;59;7;7;5;5;4;15;14;13;43;Paesi Bassi;12;Serbia, Repubblica di, Repubblica di;5;Ucraina;3;0;0;0;5844580,12;1;0;2750
2014;Parco Bosco in Città;88;224;223;447;112;176;205;103;8;4;2;3;4;27;22;11;67;Kosovo;47;Macedonia, Repubblica di, Repubblica di;34;Romania;34;0;0;0;7837668,61;22;0;100
2014;Parco dei Navigli;86;177;126;303;58;44;129;60;2;4;2;1;1;15;13;4;24;Romania;13;Albania;9;Bulgaria;8;0;0;0;3617836,27;2;0;0
2014;Parco delle Abbazie;85;249;221;470;133;206;215;100;7;11;4;4;1;37;15;10;43;Romania;75;Montenegro;62;Bosnia-Erzegovina;35;0;0;0;13722000;22;0;1940
2014;Parco Forlanini - Ortica;24;519;435;954;143;289;508;277;25;9;4;2;5;76;48;33;125;Egitto;54;Romania;45;Ecuador;22;0;0;0;2925814,52;16;1;3800
2014;Parco Lambro - Cimiano;18;9081;10561;19642;2765;2939;9965;4466;1099;161;59;62;236;740;619;2183;5752;Filippine;595;Perù;401;Egitto;271;7;4;3;4971969,5;61;3;1940
2014;Parco Monlué - Ponte Lambro;31;2697;2415;5112;1020;1803;2218;956;95;60;35;40;21;335;313;171;749;Egitto;275;Ecuador;195;Perù;184;1;1;0;2639289,21;21;0;3430
2014;Parco Nord;84;46;54;100;19;28;48;21;2;1;0;1;0;20;2;3;15;Egitto;6;Ucraina;6;Cinese, Repubblica Popolare;5;1;1;0;1533639,39;12;0;1200
2014;Parco Sempione;8;3;0;3;1;0;1;0;0;0;0;0;0;0;0;0;0;;0;;0;;0;0;0;0;470434,33;8;0;1350
2014;Porta Romana;27;7598;8619;16217;2239;1697;8271;3782;561;148;68;26;116;700;661;1080;3508;Filippine;317;Cinese, Repubblica Popolare;122;Perù;116;1;2;1;1002793,53;36;1;420
2014;Portello;67;3630;4170;7800;1124;743;3923;1754;401;59;15;11;86;263;211;804;2182;Perù;114;Filippine;103;Cinese, Repubblica Popolare;65;3;3;1;909636,6;22;0;0
2014;QT 8;66;1836;2207;4043;642;386;1951;836;240;32;13;4;50;113;109;448;1087;Filippine;60;Sri Lanka (ex Ceylon);44;Ucraina;36;3;2;1;1024437,42;18;1;917
2014;Quarto Cagnino;61;4541;4854;9395;1388;882;4539;1869;268;59;21;14;94;243;192;648;2551;Egitto;166;Cinese, Repubblica Popolare;106;Filippine;104;3;1;1;986391,48;29;0;630
2014;Quarto Oggiaro;76;14874;16168;31042;5190;6756;15308;6759;1212;254;117;117;330;1108;717;2511;7222;Cinese, Repubblica Popolare;1531;Egitto;899;Filippine;651;7;5;3;2778263,75;47;2;840
2014;Quinto Romano;62;2352;2457;4809;657;419;2324;922;124;37;19;8;52;147;82;264;1163;Egitto;65;Filippine;55;Perù;49;1;1;0;1645859,77;19;0;1680
2014;Quintosole;39;632;160;792;70;138;165;93;8;2;2;1;1;92;142;17;101;Egitto;32;Albania;29;Marocco;19;0;0;0;1057528,77;4;0;0
2014;Ripamonti;38;6755;7178;13933;2218;1677;6698;2548;444;119;40;27;96;471;389;932;3632;Filippine;226;Egitto;177;Ecuador;154;4;2;1;1853233,5;34;0;930
2014;Rogoredo;33;4992;4760;9752;1977;1884;4799;2160;198;116;34;34;62;338;322;386;1370;Egitto;270;Perù;219;Filippine;181;2;1;1;1200161,64;8;0;0
2014;Ronchetto delle Rane;40;406;371;777;177;127;312;88;16;5;2;0;4;14;7;31;100;Egitto;42;Filippine;22;Perù;13;0;0;0;188870,6;1;0;0
2014;Ronchetto sul Naviglio;48;6963;7641;14604;2071;1775;7424;3232;537;119;55;34;134;505;390;1138;4174;Egitto;373;Perù;207;Filippine;196;4;4;3;2406775,2;39;0;4430
2014;S. Cristoforo;45;6347;6776;13123;2021;2418;7086;3574;405;133;55;52;121;440;481;813;3024;Egitto;584;Filippine;273;Perù;175;5;1;1;1596174,14;37;0;4200
2014;S. Siro;60;5995;6486;12481;2311;2116;5742;1963;364;98;40;32;118;834;407;925;2897;Filippine;383;Francia;356;Perù;158;6;8;4;3435307,37;65;0;0
2014;Sacco;74;138;115;253;39;50;123;50;3;2;1;1;1;11;12;12;53;Cinese, Repubblica Popolare;27;Filippine;7;Bolivia;3;0;0;0;708465,8;4;0;2204
2014;Sarpi;69;13591;15920;29511;4724;4878;14530;6660;1018;266;115;87;246;1349;1144;2101;6224;Cinese, Repubblica Popolare;2021;Filippine;563;Perù;223;5;4;3;1811914,53;70;0;0
2014;Scalo Romana;36;6110;5551;11661;1709;3984;5813;2816;257;93;26;53;73;642;694;522;2065;Egitto;850;Filippine;637;Bangladesh;364;0;1;0;1736727,98;26;0;2000
2014;Selinunte;57;12732;13805;26537;4469;9256;13580;6748;1137;297;93;214;258;1257;1460;2061;5857;Egitto;2947;Filippine;1249;Romania;736;2;1;0;984925,54;47;0;0
2014;Stadera;42;14563;15349;29912;4818;5886;15813;7619;1163;276;107;108;289;1257;899;2272;6774;Filippine;1051;Egitto;855;Perù;436;8;5;3;3232237,35;47;1;2600
2014;Stephenson;75;44;33;77;10;20;34;14;1;0;0;0;0;2;5;3;17;Cinese, Repubblica Popolare;7;Filippine;4;Sri Lanka (ex Ceylon);4;0;0;0;560097,89;0;0;0
2014;Tibaldi;43;5451;6036;11487;1425;1918;6114;3092;540;79;30;28;89;624;468;982;2954;Egitto;350;Filippine;311;Perù;144;2;1;1;786214,31;22;0;0
2014;Ticinese;6;9056;10542;19598;2706;2130;9866;4630;654;162;75;39;177;941;752;1310;4364;Filippine;329;Egitto;242;Cinese, Repubblica Popolare;170;8;3;2;1255064,75;37;0;184
2014;Tortona;50;6728;8139;14867;2338;1224;7231;2999;564;106;31;24;155;520;446;1176;3668;Filippine;207;Sri Lanka (ex Ceylon);92;Egitto;75;4;2;0;996786,39;23;1;730
2014;Tre Torri;59;740;849;1589;313;205;732;294;60;9;1;5;15;57;82;116;348;Francia;40;Filippine;26;Perù;12;0;0;0;513316,34;14;0;780
2014;Trenno;64;2126;2028;4154;527;294;1959;762;99;14;7;0;26;162;172;231;1118;Pakistan;32;Eritrea;29;Afghanistan;25;2;0;0;489710,56;13;0;225
2014;Triulzo Superiore;32;891;622;1513;274;1044;801;475;16;28;8;24;8;127;109;29;113;Egitto;253;Sri Lanka (ex Ceylon);156;Filippine;127;0;0;0;1395022,03;14;1;0
2014;Umbria - Molise;28;10523;11791;22314;3247;4405;11168;5144;909;208;74;82;230;856;836;1847;5299;Filippine;807;Egitto;620;Perù;304;3;1;1;1192396,73;43;1;2910
2014;Viale Monza;16;13675;14474;28149;4383;6481;14333;6605;878;299;105;137;232;1136;1147;1812;6390;Filippine;1629;Perù;702;Egitto;675;10;6;2;1135239,32;39;0;0
2014;Vigentina;5;6277;7271;13548;2180;1452;6391;2632;534;91;33;24;132;546;449;1185;3388;Filippine;197;Sri Lanka (ex Ceylon);176;Egitto;134;4;3;3;3427070,6;84;0;902
2014;Villapizzone;71;19514;20475;39989;6487;12507;19763;8924;1490;403;173;235;418;1765;1608;2945;8384;Cinese, Repubblica Popolare;2631;Filippine;1931;Egitto;1784;11;8;3;3005623,49;64;4;0
2014;Washington;51;11759;14523;26282;4213;2559;13378;6127;1143;221;75;49;243;973;889;2260;6577;Filippine;546;Perù;178;Francia;166;4;3;3;1306450,76;59;0;2440
2014;XXII Marzo;26;14193;16787;30980;4628;2901;15412;6900;1199;258;89;54;309;1029;1092;2446;7643;Filippine;525;Perù;258;Sri Lanka (ex Ceylon);183;5;3;3;1637499,71;68;0;1140
2014;N.D.;;0;0;0;0;0;0;0;0;0;0;0;0;0;1;0;0;;0;;0;;0;0;0;0;0;0;0;0
2015;Adriano;17;8191;7800;15991;3043;3342;7184;2867;295;150;57;60;107;351;537;605;2440;Filippine;530;Egitto;457;Cinese, Repubblica Popolare;372;4;1;0;2431560,11;34;0;1360
2015;Affori;80;12254;12286;24540;4110;7125;11865;5017;692;249;90;136;188;565;854;1452;4835;Cinese, Repubblica Popolare;1743;Egitto;1136;Filippine;1080;6;3;2;2070893,65;21;2;1550
2015;Baggio;55;14042;15506;29548;4665;5302;14801;6662;1143;224;104;98;350;588;738;2440;7866;Filippine;1041;Perù;708;Egitto;607;7;3;2;3478599,96;55;0;0
2015;Bande Nere;52;19828;23779;43607;6140;6597;22139;10121;2310;332;110;119;665;943;1330;4889;12504;Filippine;1562;Egitto;598;Perù;569;15;7;7;2663880,93;73;3;0
2015;Barona;46;7878;8926;16804;2307;2171;7859;3148;697;86;35;36;241;354;226;1529;5295;Egitto;499;Filippine;253;Marocco;219;3;3;1;2006324,59;59;0;1240
2015;Bicocca;15;4170;4054;8224;1470;1322;3900;1629;137;109;36;22;44;241;396;322;1268;Filippine;204;Egitto;193;Cinese, Repubblica Popolare;123;0;0;0;1534521,13;39;3;3070
2015;Bovisa;77;6849;6568;13417;2071;4751;7260;3951;441;118;44;62;109;358;687;786;2370;Egitto;1137;Cinese, Repubblica Popolare;813;Filippine;553;4;2;1;1913132,63;27;1;3470
2015;Bovisasca;81;3363;3745;7108;1070;932;3316;1256;262;48;22;20;104;166;145;648;1957;Perù;114;Egitto;109;Cinese, Repubblica Popolare;98;3;1;1;1576826,44;23;0;0
2015;Brera;2;8322;9549;17871;2863;2471;8962;4127;601;143;55;46;160;635;807;1231;4141;Filippine;402;Sri Lanka (ex Ceylon);190;Romania;137;5;5;3;1637395,23;63;4;1354
2015;Bruzzano;83;6254;6588;12842;2130;2368;6137;2409;342;111;46;54;113;292;341;820;3024;Egitto;373;Perù;233;Ecuador;216;3;2;1;1667691,29;21;1;0
2015;Buenos Aires - Venezia;21;28512;32690;61202;9133;7456;30403;13555;2156;457;176;98;557;1509;2179;4502;14228;Filippine;1318;Cinese, Repubblica Popolare;615;Sri Lanka (ex Ceylon);467;9;5;4;2877542,27;119;5;1220
2015;Cantalupa;47;247;229;476;71;70;245;109;5;1;1;0;1;20;14;10;89;Egitto;14;Cinese, Repubblica Popolare;9;Perù;7;0;0;0;926716,81;2;0;1460
2015;Cascina Triulza - Expo;73;623;93;716;14;121;21;7;0;0;0;0;1;61;151;1;32;Marocco;24;Romania;23;Albania;17;0;0;0;1729126,9;1;0;2204
2015;Centrale;10;9131;8705;17836;2469;4384;8621;3889;522;155;51;67;147;517;912;1118;3614;Bangladesh;705;Filippine;609;Cinese, Repubblica Popolare;549;3;3;3;1556077,52;65;5;878
2015;Chiaravalle;34;551;535;1086;139;149;528;215;31;7;4;3;6;38;15;56;246;Filippine;27;Bangladesh;17;Egitto;15;1;0;0;311640,12;4;0;0
2015;Città Studi;22;16553;19491;36044;4941;5395;18157;8320;1599;292;101;82;420;874;1035;3259;9279;Filippine;917;Perù;547;Sri Lanka (ex Ceylon);425;7;8;5;2207487,44;88;2;564
2015;Comasina;82;4675;4774;9449;1754;3031;4366;1854;361;87;32;50;99;244;236;668;1906;Cinese, Repubblica Popolare;905;Egitto;420;Perù;265;3;2;2;926734,56;24;1;0
2015;Corsica;25;8766;10320;19086;2702;2797;9465;4134;785;163;61;37;206;439;625;1698;4758;Filippine;659;Perù;248;Cinese, Repubblica Popolare;223;5;3;3;1081329,7;35;2;1930
2015;De Angeli - Monte Rosa;58;9259;11338;20597;3178;2468;10347;4773;847;170;50;39;228;539;674;1806;5125;Filippine;407;Francia;235;Perù;192;3;2;3;1323078,54;249;2;1550
2015;Dergano;79;11784;10785;22569;3734;7899;11048;5200;605;214;89;124;169;572;963;1260;3914;Egitto;1763;Cinese, Repubblica Popolare;1594;Filippine;1005;3;3;3;1358615,04;29;3;325
2015;Duomo;1;7965;8669;16634;2693;2077;8198;3738;524;157;57;35;122;490;820;1077;3684;Filippine;409;Sri Lanka (ex Ceylon);256;Francia;119;4;4;3;2341704,07;106;8;0
2015;Ex OM - Morivione;37;3673;4001;7674;1323;1287;3537;1512;203;70;23;32;117;199;275;582;1656;Filippine;244;Egitto;165;Cinese, Repubblica Popolare;121;2;2;1;817976,68;10;0;510
2015;Farini;78;2093;1883;3976;592;1465;1924;843;84;50;23;26;30;118;184;162;622;Egitto;360;Cinese, Repubblica Popolare;344;Filippine;139;0;0;0;1010230,89;17;0;325
2015;Figino;63;951;985;1936;336;393;952;414;44;15;5;8;17;36;85;100;391;Romania;60;Sri Lanka (ex Ceylon);59;Egitto;52;2;2;1;1424713,85;11;0;0
2015;Forze Armate;56;11511;12756;24267;3656;4220;12268;5718;889;183;58;70;257;536;608;1809;6267;Filippine;854;Egitto;659;Perù;465;7;6;2;3206902,39;66;2;0
2015;Gallaratese;65;14923;17210;32133;4260;2885;16419;7380;1657;171;64;51;490;680;682;3804;11281;Romania;362;Filippine;320;Perù;296;6;6;3;3894538,21;87;5;2570
2015;Garibaldi Repubblica;9;2517;2770;5287;704;709;2616;1199;178;53;23;15;48;210;279;370;1139;Cinese, Repubblica Popolare;100;Perù;81;Sri Lanka (ex Ceylon);51;1;0;0;785668,25;27;2;1290
2015;Ghisolfa;70;8207;9245;17452;2749;3034;8626;3771;732;173;61;60;171;407;565;1436;3893;Cinese, Repubblica Popolare;663;Filippine;538;Egitto;284;0;0;0;1051452,21;32;0;203
2015;Giambellino;49;14945;16643;31588;5190;8035;16074;7670;1281;268;84;135;312;821;931;2418;7124;Egitto;1894;Filippine;1402;Sri Lanka (ex Ceylon);699;2;2;2;1965274,21;57;4;1890
2015;Giardini Porta Venezia;3;28;27;55;10;14;22;8;1;1;1;0;0;1;5;2;6;Sri Lanka (ex Ceylon);8;Filippine;4;Francia;1;1;0;0;249646,83;3;0;0
2015;Gratosoglio - Ticinello;41;8835;9893;18728;2966;2659;8646;3314;762;110;52;44;242;499;382;1840;5566;Egitto;424;Filippine;359;Marocco;243;3;4;2;3312818,32;37;0;2153
2015;Greco;13;7424;7822;15246;2377;3756;7471;3334;616;151;63;63;151;415;598;1263;3406;Filippine;830;Cinese, Repubblica Popolare;580;Egitto;437;2;2;2;1768669,43;35;0;3460
2015;Guastalla;4;6838;8091;14929;2305;1844;7404;3224;530;122;37;23;147;414;548;1147;3696;Filippine;378;Sri Lanka (ex Ceylon);304;Perù;94;6;7;9;1548020,74;52;2;0
2015;Isola;11;10966;11637;22603;3218;4172;11163;5012;721;202;81;63;210;545;918;1512;4652;Cinese, Repubblica Popolare;678;Egitto;615;Filippine;532;3;2;2;1322966,34;53;1;285
2015;Lambrate;23;5350;5648;10998;1900;2060;5326;2430;323;116;44;40;109;258;427;780;2122;Filippine;429;Egitto;282;Perù;162;6;4;2;3096861,87;39;0;1595
2015;Lodi - Corvetto;35;17350;18752;36102;5468;9242;18045;8224;1535;322;138;164;461;957;1175;3147;8770;Filippine;1678;Egitto;1455;Perù;842;9;7;4;3639092,52;54;4;1680
2015;Lorenteggio;53;6445;7234;13679;2159;1965;6496;2582;652;78;27;26;197;240;323;1488;3741;Egitto;439;Filippine;213;Perù;146;5;4;2;2635327,1;44;0;2100
2015;Loreto;20;22836;21501;44337;6438;15401;21632;9768;1193;411;149;227;360;1294;2145;2456;7807;Filippine;2887;Egitto;2866;Cinese, Repubblica Popolare;1689;7;5;4;1747565,53;56;2;640
2015;Maciachini - Maggiolina;12;12386;13634;26020;3793;5269;13035;6029;1055;224;80;100;276;572;778;2155;6214;Filippine;957;Cinese, Repubblica Popolare;918;Egitto;642;8;3;2;1674980,95;51;1;458
2015;Magenta - S. Vittore;7;8006;9258;17264;3002;1854;8288;3385;589;146;35;22;161;444;0;1236;3925;Filippine;330;Sri Lanka (ex Ceylon);230;Francia;220;5;6;4;1390146,88;58;4;1840
2015;Maggiore - Musocco;72;2386;2565;4951;815;823;2708;1267;178;39;15;21;57;97;130;330;1326;Perù;113;Egitto;111;Ecuador;84;2;2;1;3030188,71;47;0;0
2015;Mecenate;30;8837;10185;19022;2829;3035;9681;4343;1137;118;51;40;309;377;453;2422;5504;Perù;436;Filippine;389;Romania;261;5;4;2;3821389,97;86;0;1940
2015;Muggiano;54;1524;1537;3061;749;203;1351;508;37;27;11;7;12;54;39;76;334;Ecuador;29;Egitto;27;Perù;24;1;1;0;444218,42;7;0;1040
2015;Navigli;44;8023;9057;17080;2510;2277;8592;4170;541;191;78;56;160;488;640;1089;3420;Egitto;274;Filippine;244;Romania;169;4;1;0;1483927,87;58;2;8020
2015;Niguarda - Cà Granda;14;17289;19272;36561;5384;5093;18369;8261;1596;272;121;89;438;893;751;3376;10098;Egitto;725;Perù;510;Filippine;509;10;6;4;4251281,95;115;0;859
2015;Ortomercato;29;2141;2068;4209;635;1595;2091;1028;162;38;17;22;46;113;190;320;894;Egitto;448;Filippine;231;Cinese, Repubblica Popolare;139;1;1;1;1402519,65;15;0;1400
2015;Padova;19;17968;18466;36434;5388;12344;18028;8182;1342;325;106;203;345;884;1417;2825;8007;Filippine;2671;Egitto;2261;Cinese, Repubblica Popolare;1165;7;4;3;2061945,5;49;2;650
2015;Pagano;68;7859;9037;16896;3060;1569;8083;3424;653;135;42;25;167;413;506;1371;4034;Filippine;275;Sri Lanka (ex Ceylon);138;Francia;118;2;2;2;1289734,29;53;1;1887
2015;Parco Agricolo Sud;87;166;158;324;72;41;140;59;8;4;4;1;2;18;12;12;46;Paesi Bassi;12;Serbia, Repubblica di, Repubblica di;4;Ucraina;4;0;0;0;5844580,12;1;0;2750
2015;Parco Bosco in Città;88;216;222;438;111;169;200;96;5;10;7;4;4;26;20;10;69;Romania;48;Kosovo;36;Macedonia, Repubblica di, Repubblica di;18;0;0;0;7837668,61;22;0;100
2015;Parco dei Navigli;86;173;132;305;58;46;138;62;2;1;0;0;0;12;7;4;26;Albania;9;Bulgaria;9;Romania;8;0;0;0;3617836,27;2;0;0
2015;Parco delle Abbazie;85;241;218;459;131;205;191;93;3;11;9;5;2;28;6;7;39;Romania;74;Montenegro;61;Bosnia-Erzegovina;37;0;0;0;13722000;22;0;1940
2015;Parco Forlanini - Ortica;24;540;448;988;151;313;500;265;22;14;12;7;3;47;73;36;124;Egitto;54;Romania;47;Filippine;22;0;0;0;2925814,52;16;1;3800
2015;Parco Lambro - Cimiano;18;9021;10504;19525;2766;2968;9916;4491;1114;146;54;52;250;511;567;2202;5690;Filippine;586;Perù;385;Egitto;277;7;4;3;4971969,5;61;3;1940
2015;Parco Monlué - Ponte Lambro;31;2689;2394;5083;986;1781;2198;959;99;49;28;26;41;234;226;177;746;Egitto;268;Ecuador;198;Perù;190;1;1;0;2639289,21;21;0;3430
2015;Parco Nord;84;47;47;94;18;23;47;23;2;1;0;1;1;5;3;3;14;Egitto;6;Cinese, Repubblica Popolare;5;Filippine;3;1;1;0;1533639,39;12;0;1200
2015;Parco Sempione;8;3;0;3;1;0;1;0;0;0;0;0;0;0;672;0;0;;0;;0;;0;0;0;0;470434,33;8;0;1350
2015;Porta Romana;27;7610;8661;16271;2221;1708;8306;3821;553;140;47;30;162;489;730;1078;3509;Filippine;318;Cinese, Repubblica Popolare;118;Perù;113;1;2;1;1002793,53;36;1;420
2015;Portello;67;3692;4216;7908;1157;783;3978;1765;373;68;24;17;102;145;264;775;2159;Perù;114;Filippine;100;Cinese, Repubblica Popolare;72;3;3;1;909636,6;22;0;0
2015;QT 8;66;1856;2230;4086;645;417;1956;841;233;24;12;2;49;73;94;454;1078;Filippine;53;Sri Lanka (ex Ceylon);46;Cinese, Repubblica Popolare;38;3;2;1;1024437,42;18;1;917
2015;Quarto Cagnino;61;4658;5008;9666;1462;945;4681;1929;280;75;30;21;83;118;213;691;2571;Egitto;181;Cinese, Repubblica Popolare;113;Filippine;113;3;1;1;986391,48;29;0;630
2015;Quarto Oggiaro;76;14894;16105;30999;5203;6872;15328;6752;1207;229;117;106;435;701;556;2523;7134;Cinese, Repubblica Popolare;1579;Egitto;904;Filippine;668;6;5;3;2778263,75;47;2;840
2015;Quinto Romano;62;2318;2450;4768;655;438;2305;925;133;27;7;12;37;95;73;296;1189;Egitto;69;Filippine;54;Perù;47;1;1;0;1645859,77;19;0;1680
2015;Quintosole;39;645;158;803;64;143;164;92;7;3;0;2;10;65;97;15;104;Egitto;33;Albania;27;Romania;18;0;0;0;1057528,77;4;0;0
2015;Ripamonti;38;6838;7285;14123;2236;1698;6814;2591;480;108;30;30;110;298;349;1013;3683;Filippine;235;Egitto;169;Sri Lanka (ex Ceylon);143;4;2;1;1853233,5;34;0;930
2015;Rogoredo;33;5064;4853;9917;2046;1981;4799;2136;195;113;36;33;62;281;276;401;1416;Egitto;292;Perù;207;Filippine;204;2;1;1;1200161,64;8;0;0
2015;Ronchetto delle Rane;40;395;363;758;164;116;312;88;14;2;1;0;5;17;6;31;102;Egitto;38;Filippine;22;Sri Lanka (ex Ceylon);11;0;0;0;188870,6;1;0;0
2015;Ronchetto sul Naviglio;48;6929;7670;14599;2078;1779;7409;3226;551;104;37;38;160;325;325;1205;4187;Egitto;385;Perù;195;Filippine;182;4;4;3;2406775,2;39;0;4430
2015;S. Cristoforo;45;6488;6894;13382;2098;2534;7188;3650;428;106;40;34;121;299;483;861;3075;Egitto;648;Filippine;266;Sri Lanka (ex Ceylon);189;4;1;1;1596174,14;37;0;4200
2015;S. Siro;60;6040;6499;12539;2302;2150;5776;1970;375;95;40;35;121;315;393;962;2921;Filippine;427;Francia;380;Perù;156;6;8;4;3435307,37;65;0;0
2015;Sacco;74;138;115;253;34;52;124;50;5;1;1;0;2;7;13;12;56;Cinese, Repubblica Popolare;29;Filippine;5;Bolivia;3;0;0;0;708465,8;4;0;2204
2015;Sarpi;69;13732;16096;29828;4850;4989;14684;6746;1016;276;130;72;297;818;1085;2111;6219;Cinese, Repubblica Popolare;2119;Filippine;549;Sri Lanka (ex Ceylon);215;5;4;3;1811914,53;70;0;0
2015;Scalo Romana;36;6428;5615;12043;1757;4280;5951;2882;259;107;38;66;80;362;700;543;2091;Egitto;895;Filippine;661;Bangladesh;394;0;1;0;1736727,98;26;0;2000
2015;Selinunte;57;12799;13835;26634;4630;9477;13579;6761;1123;285;97;195;289;671;970;2041;5773;Egitto;3104;Filippine;1226;Romania;836;2;1;0;984925,54;47;0;0
2015;Stadera;42;14610;15311;29921;4851;5906;15844;7636;1177;270;116;99;297;721;860;2328;6750;Filippine;1061;Egitto;883;Perù;413;8;5;3;3232237,35;47;1;2600
2015;Stephenson;75;47;36;83;9;24;40;15;1;0;0;0;0;2;5;2;16;Cinese, Repubblica Popolare;7;Filippine;5;Sri Lanka (ex Ceylon);4;0;0;0;560097,89;0;0;0
2015;Tibaldi;43;5463;6006;11469;1407;1907;6084;3106;546;95;35;40;121;323;460;1012;2913;Egitto;348;Filippine;295;Perù;141;2;1;1;786214,31;22;0;0
2015;Ticinese;6;9068;10543;19611;2716;2122;9883;4639;662;177;57;37;172;499;726;1328;4371;Filippine;315;Egitto;250;Cinese, Repubblica Popolare;182;9;3;2;1255064,75;37;0;184
2015;Tortona;50;6782;8185;14967;2334;1208;7248;3002;563;101;36;17;139;301;461;1192;3701;Filippine;198;Sri Lanka (ex Ceylon);87;Egitto;83;4;2;0;996786,39;23;1;730
2015;Tre Torri;59;835;932;1767;350;238;822;339;60;11;0;3;14;25;137;117;356;Francia;47;Filippine;28;Spagna;16;0;0;0;513316,34;14;0;780
2015;Trenno;64;2127;2066;4193;553;314;1982;751;109;18;8;4;31;115;134;247;1162;Eritrea;31;Pakistan;30;Filippine;28;2;0;0;489710,56;13;0;225
2015;Triulzo Superiore;32;943;658;1601;305;1095;837;485;18;16;4;13;3;71;110;28;111;Egitto;265;Sri Lanka (ex Ceylon);178;Filippine;147;0;0;0;1395022,03;14;1;0
2015;Umbria - Molise;28;10586;11816;22402;3295;4398;11204;5180;927;188;59;67;202;533;723;1896;5309;Filippine;787;Egitto;610;Perù;294;3;1;0;1192396,73;43;1;2910
2015;Viale Monza;16;13829;14629;28458;4481;6614;14494;6705;898;250;103;121;251;714;1030;1896;6411;Filippine;1685;Perù;704;Egitto;693;9;6;2;1135239,32;39;0;0
2015;Vigentina;5;6259;7287;13546;2168;1471;6384;2663;528;94;33;24;144;307;470;1182;3364;Filippine;190;Sri Lanka (ex Ceylon);174;Egitto;138;4;3;3;3427070,6;84;0;902
2015;Villapizzone;71;19761;20722;40483;6624;12894;19955;9015;1500;376;154;206;418;982;1329;2983;8409;Cinese, Repubblica Popolare;2793;Filippine;1967;Egitto;1820;11;8;3;3005623,49;64;4;0
2015;Washington;51;11790;14561;26351;4206;2559;13390;6182;1133;221;84;47;265;548;810;2266;6577;Filippine;509;Francia;193;Ucraina;171;4;3;3;1306450,76;59;0;2440
2015;XXII Marzo;26;14253;16869;31122;4695;2931;15495;6975;1212;223;86;29;308;695;912;2474;7718;Filippine;496;Perù;257;Sri Lanka (ex Ceylon);182;5;3;3;1637499,71;68;0;1140
2015;N.D.;;0;0;0;0;0;0;0;0;0;0;0;1;1;1;0;0;;0;;0;;0;0;0;0;0;0;0;0
2016;Adriano;17;8459;7972;16431;3083;3581;7353;2943;297;163;60;63;97;429;576;622;2492;Filippine;538;Egitto;486;Cinese, Repubblica Popolare;390;4;1;0;2431560,11;34;0;1360
2016;Affori;80;12343;12395;24738;4166;7143;11963;5088;714;250;91;121;191;664;124;1514;4863;Cinese, Repubblica Popolare;1766;Egitto;1171;Filippine;1096;6;3;2;2070893,65;21;2;1550
2016;Baggio;55;14054;15527;29581;4631;5364;14841;6717;1206;216;103;95;338;703;693;2578;7877;Filippine;1049;Perù;707;Egitto;619;7;3;2;3478599,96;55;0;0
2016;Bande Nere;52;19888;23862;43750;6120;6759;22269;10258;2354;357;125;142;661;1091;1408;4948;12380;Filippine;1619;Egitto;600;Perù;563;13;7;6;2663880,93;73;3;0
2016;Barona;46;7910;8962;16872;2295;2230;8012;3268;747;102;50;43;224;345;254;1597;5353;Egitto;518;Filippine;272;Marocco;196;3;3;1;2006324,59;59;0;1240
2016;Bicocca;15;4294;4137;8431;1517;1406;3985;1670;134;104;36;26;53;260;378;337;1290;Egitto;211;Filippine;208;Cinese, Repubblica Popolare;141;0;0;0;1534521,13;39;3;3070
2016;Bovisa;77;7057;6685;13742;2157;4904;7439;4073;454;136;50;93;103;399;169;799;2385;Egitto;1198;Cinese, Repubblica Popolare;864;Filippine;566;4;2;1;1913132,63;27;1;3470
2016;Bovisasca;81;3362;3708;7070;1056;914;3308;1262;266;49;24;16;97;185;244;654;1953;Cinese, Repubblica Popolare;104;Egitto;102;Perù;97;3;1;1;1576826,44;23;0;0
2016;Brera;2;8320;9636;17956;2914;2456;8987;4138;586;116;49;25;165;613;834;1218;4134;Filippine;393;Sri Lanka (ex Ceylon);180;Romania;128;5;5;3;1637395,23;63;4;1354
2016;Bruzzano;83;6258;6610;12868;2163;2367;6161;2418;358;117;49;47;126;346;7;850;3060;Egitto;384;Perù;225;Ecuador;209;3;2;1;1667691,29;21;1;0
2016;Buenos Aires - Venezia;21;28725;32831;61556;9151;7412;30661;13773;2172;480;180;121;562;1473;2085;4549;14281;Filippine;1319;Cinese, Repubblica Popolare;669;Sri Lanka (ex Ceylon);466;9;5;4;2877542,27;119;5;1220
2016;Cantalupa;47;258;240;498;76;73;254;112;3;3;2;2;5;20;27;9;87;Egitto;15;Cinese, Repubblica Popolare;12;Ecuador;5;0;0;0;926716,81;2;0;1460
2016;Cascina Triulza - Expo;73;658;94;752;12;144;21;4;0;0;0;0;0;80;130;2;36;Marocco;36;Romania;25;Albania;24;0;0;0;1729126,9;1;0;2204
2016;Centrale;10;9344;8731;18075;2469;4498;8732;3977;527;150;69;65;132;568;856;1136;3641;Bangladesh;702;Filippine;593;Cinese, Repubblica Popolare;544;3;3;3;1556077,52;65;5;878
2016;Chiaravalle;34;549;517;1066;130;146;522;219;28;4;1;1;10;32;14;59;254;Filippine;22;Egitto;17;Romania;16;1;0;0;311640,12;4;0;0
2016;Città Studi;22;16647;19474;36121;4938;5324;18229;8409;1605;277;106;89;380;923;1268;3282;9224;Filippine;910;Perù;528;Sri Lanka (ex Ceylon);416;7;8;5;2207487,44;88;2;564
2016;Comasina;82;4691;4821;9512;1799;3036;4357;1849;349;99;35;56;75;299;275;661;1916;Cinese, Repubblica Popolare;986;Egitto;388;Perù;248;3;2;2;926734,56;24;1;0
2016;Corsica;25;8923;10518;19441;2754;2822;9604;4257;794;151;50;43;177;444;619;1719;4754;Filippine;665;Cinese, Repubblica Popolare;238;Perù;238;5;3;3;1081329,7;35;2;1930
2016;De Angeli - Monte Rosa;58;9451;11436;20887;3231;2529;10492;4860;853;185;76;46;232;502;798;1825;5114;Filippine;398;Francia;265;Perù;182;3;2;3;1323078,54;249;2;1550
2016;Dergano;79;11819;10862;22681;3743;7841;11107;5263;618;226;87;130;175;713;710;1301;3930;Egitto;1730;Cinese, Repubblica Popolare;1632;Filippine;975;3;3;3;1358615,04;29;3;325
2016;Duomo;1;8121;8782;16903;2745;2114;8360;3813;529;128;54;32;121;508;829;1105;3731;Filippine;404;Sri Lanka (ex Ceylon);261;Francia;131;4;4;3;2341704,07;106;8;0
2016;Ex OM - Morivione;37;3694;4021;7715;1299;1285;3565;1543;215;54;18;21;122;215;257;622;1673;Filippine;239;Egitto;154;Cinese, Repubblica Popolare;130;2;2;1;817976,68;10;0;510
2016;Farini;78;2085;1872;3957;588;1412;1922;834;82;48;23;26;13;147;794;174;640;Egitto;352;Cinese, Repubblica Popolare;334;Filippine;130;0;0;0;1010230,89;17;0;325
2016;Figino;63;1022;1038;2060;357;427;1015;431;45;13;8;7;14;43;68;103;416;Romania;61;Sri Lanka (ex Ceylon);58;Egitto;53;2;2;1;1424713,85;11;0;0
2016;Forze Armate;56;11512;12772;24284;3736;4280;12249;5733;900;172;62;63;276;603;594;1855;6240;Filippine;864;Egitto;714;Perù;428;7;5;2;3206902,39;66;2;0
2016;Gallaratese;65;14831;17165;31996;4241;2938;16384;7434;1759;180;75;58;470;634;599;4027;11094;Romania;371;Filippine;350;Perù;271;6;6;3;3894538,21;87;5;2570
2016;Garibaldi Repubblica;9;2632;2874;5506;727;763;2738;1253;172;49;18;13;44;149;305;373;1155;Cinese, Repubblica Popolare;106;Perù;80;Sri Lanka (ex Ceylon);49;1;0;0;785668,25;27;2;1290
2016;Ghisolfa;70;8244;9394;17638;2811;3092;8734;3871;752;167;69;74;165;412;548;1420;3867;Cinese, Repubblica Popolare;663;Filippine;540;Egitto;297;0;0;0;1051452,21;32;0;203
2016;Giambellino;49;14949;16533;31482;5141;7995;16051;7693;1308;274;86;133;322;826;821;2447;7051;Egitto;1956;Filippine;1391;Sri Lanka (ex Ceylon);676;2;2;2;1965274,21;57;4;1890
2016;Giardini Porta Venezia;3;26;24;50;8;7;21;9;1;0;0;0;0;0;6;2;6;Filippine;3;Sri Lanka (ex Ceylon);3;Stati Uniti d'America;1;1;0;0;249646,83;3;0;0
2016;Gratosoglio - Ticinello;41;8894;9882;18776;2958;2722;8656;3345;812;92;51;35;247;359;314;1950;5495;Egitto;424;Filippine;360;Marocco;237;3;4;2;3312818,32;37;0;2153
2016;Greco;13;7499;7895;15394;2392;3766;7540;3385;602;117;52;61;161;432;475;1279;3385;Filippine;822;Cinese, Repubblica Popolare;619;Egitto;401;2;2;2;1768669,43;35;0;3460
2016;Guastalla;4;6909;8117;15026;2348;1800;7433;3266;536;133;45;33;154;414;564;1130;3678;Filippine;358;Sri Lanka (ex Ceylon);283;Romania;90;6;7;9;1548020,74;52;2;0
2016;Isola;11;11021;11623;22644;3161;4068;11199;5057;741;209;81;64;185;723;956;1532;4638;Cinese, Repubblica Popolare;646;Egitto;601;Filippine;498;4;3;3;1322966,34;53;1;285
2016;Lambrate;23;5417;5717;11134;1910;2002;5407;2501;335;101;30;20;136;337;367;776;2133;Filippine;424;Egitto;273;Romania;145;6;4;2;3096861,87;39;0;1595
2016;Lodi - Corvetto;35;17293;18756;36049;5504;9174;18030;8264;1536;309;121;152;458;1159;1058;3155;8645;Filippine;1712;Egitto;1492;Perù;775;9;7;4;3639092,52;54;4;1680
2016;Lorenteggio;53;6543;7349;13892;2178;1968;6614;2662;657;110;37;41;172;318;445;1537;3715;Egitto;426;Filippine;214;Romania;152;5;4;2;2635327,1;44;0;2100
2016;Loreto;20;23112;21593;44705;6485;15415;21814;9887;1175;398;168;209;359;1521;1923;2438;7800;Filippine;2905;Egitto;2888;Cinese, Repubblica Popolare;1772;7;5;4;1747565,53;56;2;640
2016;Maciachini - Maggiolina;12;12447;13687;26134;3823;5230;13141;6122;1077;214;82;85;265;661;825;2144;6178;Filippine;932;Cinese, Repubblica Popolare;928;Egitto;647;8;3;2;1674980,95;51;1;458
2016;Magenta - S. Vittore;7;7990;9306;17296;2971;1847;8358;3483;593;127;40;32;154;426;684;1244;3909;Filippine;321;Sri Lanka (ex Ceylon);216;Francia;214;5;6;4;1390146,88;58;4;1840
2016;Maggiore - Musocco;72;2481;2653;5134;847;874;2852;1356;175;41;13;21;65;101;161;344;1309;Egitto;118;Perù;110;Romania;91;2;2;1;3030188,71;47;0;0
2016;Mecenate;30;8865;10178;19043;2837;3052;9668;4387;1155;151;63;63;291;452;397;2457;5406;Perù;407;Filippine;396;Egitto;266;5;4;2;3821389,97;86;0;1940
2016;Muggiano;54;1531;1557;3088;748;204;1350;513;33;29;11;5;12;51;66;78;349;Egitto;30;Ecuador;28;Perù;21;1;1;0;444218,42;7;0;1040
2016;Navigli;44;8041;9099;17140;2552;2191;8608;4181;543;187;80;40;136;472;660;1102;3407;Egitto;251;Filippine;244;Romania;170;4;1;0;1483927,87;58;2;8020
2016;Niguarda - Cà Granda;14;17297;19238;36535;5356;5132;18401;8329;1620;249;97;100;443;956;817;3436;10049;Egitto;750;Cinese, Repubblica Popolare;515;Filippine;514;10;6;4;4251281,95;115;0;859
2016;Ortomercato;29;2127;2068;4195;649;1604;2087;997;153;37;17;25;35;146;136;321;877;Egitto;449;Filippine;229;Cinese, Repubblica Popolare;145;1;1;1;1402519,65;15;0;1400
2016;Padova;19;18132;18586;36718;5455;12430;18128;8267;1349;340;139;203;350;1025;1201;2842;7943;Filippine;2649;Egitto;2340;Cinese, Repubblica Popolare;1212;7;4;3;2061945,5;49;2;650
2016;Pagano;68;7997;9156;17153;3101;1613;8233;3542;668;128;43;17;158;351;539;1380;4048;Filippine;274;Francia;153;Sri Lanka (ex Ceylon);134;2;2;2;1289734,29;53;1;1887
2016;Parco Agricolo Sud;87;157;140;297;69;29;138;60;6;6;3;1;8;44;21;11;40;Ucraina;5;Marocco;4;Serbia, Repubblica di, Repubblica di;4;0;0;0;5844580,12;1;0;2750
2016;Parco Bosco in Città;88;180;187;367;82;98;176;87;4;6;2;3;1;87;1;12;74;Romania;49;Perù;9;Ecuador;7;0;0;0;7837668,61;22;0;100
2016;Parco dei Navigli;86;170;125;295;56;44;128;59;2;3;2;1;1;20;18;5;27;Romania;10;Albania;9;Egitto;8;0;0;0;3617836,27;2;0;0
2016;Parco delle Abbazie;85;236;218;454;133;188;180;87;3;11;6;7;0;27;16;8;39;Romania;66;Montenegro;59;Bosnia-Erzegovina;30;0;0;0;13722000;22;0;1940
2016;Parco Forlanini - Ortica;24;675;476;1151;148;469;517;274;21;8;4;5;7;39;228;35;127;Egitto;57;Romania;45;Nigeria;32;0;0;0;2925814,52;16;1;3800
2016;Parco Lambro - Cimiano;18;8972;10388;19360;2743;2881;9885;4488;1104;140;53;56;264;535;508;2221;5594;Filippine;558;Perù;336;Egitto;261;7;4;3;4971969,5;61;3;1940
2016;Parco Monlué - Ponte Lambro;31;2685;2367;5052;971;1735;2231;985;94;46;22;20;42;295;221;176;728;Egitto;287;Perù;192;Ecuador;181;1;1;0;2639289,21;21;0;3430
2016;Parco Nord;84;50;51;101;19;21;47;24;2;1;0;0;1;1;10;3;13;Cinese, Repubblica Popolare;5;Filippine;3;Romania;3;1;1;0;1533639,39;12;0;1200
2016;Parco Sempione;8;3;0;3;1;0;1;0;0;0;0;0;0;0;0;0;0;;0;;0;;0;0;0;0;470434,33;8;0;1350
2016;Porta Romana;27;7678;8724;16402;2248;1711;8417;3893;562;157;60;24;152;389;700;1104;3514;Filippine;295;Cinese, Repubblica Popolare;132;Perù;104;1;2;1;1002793,53;36;1;420
2016;Portello;67;3769;4321;8090;1203;785;4089;1837;369;68;25;13;99;190;270;774;2173;Filippine;114;Perù;112;Cinese, Repubblica Popolare;75;2;2;1;909636,6;22;0;0
2016;QT 8;66;1828;2206;4034;631;390;1960;848;229;28;12;5;51;114;71;433;1062;Filippine;50;Sri Lanka (ex Ceylon);46;Cinese, Repubblica Popolare;41;3;2;1;1024437,42;18;1;917
2016;Quarto Cagnino;61;4732;5075;9807;1502;977;4762;1999;304;63;28;18;106;183;196;739;2579;Egitto;181;Filippine;122;Cinese, Repubblica Popolare;121;3;1;1;986391,48;29;0;630
2016;Quarto Oggiaro;76;14807;16031;30838;5167;6851;15226;6731;1215;227;118;112;356;771;525;2535;7106;Cinese, Repubblica Popolare;1628;Egitto;884;Filippine;663;6;5;3;2778263,75;47;2;840
2016;Quinto Romano;62;2306;2440;4746;653;456;2324;942;143;24;11;11;42;102;70;318;1226;Egitto;75;Filippine;54;Romania;54;1;1;0;1645859,77;19;0;1680
2016;Quintosole;39;631;155;786;55;144;161;90;6;0;0;0;1;74;91;15;124;Egitto;30;Albania;27;Romania;20;0;0;0;1057528,77;4;0;0
2016;Ripamonti;38;6957;7482;14439;2308;1754;6971;2686;506;114;47;31;129;280;355;1089;3729;Filippine;256;Egitto;175;Sri Lanka (ex Ceylon);143;4;2;1;1853233,5;34;0;930
2016;Rogoredo;33;5129;4945;10074;2119;1964;4866;2132;210;114;41;29;67;302;322;409;1427;Egitto;289;Filippine;220;Perù;181;2;1;1;1200161,64;8;0;0
2016;Ronchetto delle Rane;40;394;353;747;158;117;321;94;10;2;0;2;6;15;11;27;101;Egitto;36;Filippine;24;Sri Lanka (ex Ceylon);11;0;0;0;188870,6;1;0;0
2016;Ronchetto sul Naviglio;48;6907;7647;14554;2075;1820;7327;3188;561;86;33;40;158;355;319;1284;4165;Egitto;379;Perù;183;Filippine;182;4;4;3;2406775,2;39;0;4430
2016;S. Cristoforo;45;6616;6890;13506;2094;2561;7241;3703;436;124;48;53;129;413;584;875;3022;Egitto;642;Filippine;267;Sri Lanka (ex Ceylon);207;5;1;1;1596174,14;37;0;4200
2016;S. Siro;60;6061;6513;12574;2276;2145;5810;2003;378;74;32;27;129;353;382;1002;2913;Filippine;415;Francia;382;Perù;157;6;8;3;3435307,37;65;0;0
2016;Sacco;74;142;113;255;34;56;132;51;5;4;3;2;3;3;8;14;57;Cinese, Repubblica Popolare;29;Filippine;5;Sri Lanka (ex Ceylon);4;0;0;0;708465,8;4;0;2204
2016;Sarpi;69;13846;16249;30095;4926;5052;14814;6829;1013;316;142;103;301;785;1135;2115;6198;Cinese, Repubblica Popolare;2158;Filippine;556;Sri Lanka (ex Ceylon);209;5;4;3;1811914,53;70;0;0
2016;Scalo Romana;36;6591;5739;12330;1821;4346;6097;2978;273;103;34;64;77;384;595;569;2134;Egitto;935;Filippine;665;Bangladesh;390;0;1;0;1736727,98;26;0;2000
2016;Selinunte;57;12964;13926;26890;4724;9644;13661;6820;1127;258;94;176;307;761;909;2038;5680;Egitto;3167;Filippine;1269;Romania;938;2;1;0;984925,54;47;0;0
2016;Stadera;42;14614;15437;30051;4898;5933;15958;7749;1217;263;94;101;282;784;743;2392;6756;Filippine;1076;Egitto;873;Perù;408;8;5;3;3232237,35;47;1;2600
2016;Stephenson;75;43;36;79;9;24;38;13;1;0;0;0;0;4;531;4;16;Cinese, Repubblica Popolare;7;Filippine;5;Sri Lanka (ex Ceylon);4;0;0;0;560097,89;0;0;0
2016;Tibaldi;43;5483;6038;11521;1458;1895;6122;3131;582;103;42;30;125;309;405;1059;2891;Egitto;343;Filippine;287;Cinese, Repubblica Popolare;132;2;1;1;786214,31;22;0;0
2016;Ticinese;6;9004;10525;19529;2696;2055;9834;4698;671;171;69;29;192;514;742;1336;4376;Filippine;306;Egitto;235;Cinese, Repubblica Popolare;181;7;3;2;1255064,75;37;0;184
2016;Tortona;50;6768;8176;14944;2334;1172;7249;3041;582;127;48;17;159;313;464;1244;3697;Filippine;177;Sri Lanka (ex Ceylon);86;Egitto;80;4;2;0;996786,39;23;1;730
2016;Tre Torri;59;935;1045;1980;425;325;900;373;71;13;2;3;9;29;122;125;367;Francia;67;Filippine;26;Spagna;23;0;0;0;513316,34;14;0;780
2016;Trenno;64;2113;2057;4170;523;327;2004;776;123;18;6;3;22;122;114;267;1215;Filippine;31;Somalia;27;Ucraina;22;1;0;0;489710,56;13;0;225
2016;Triulzo Superiore;32;945;691;1636;339;1117;838;470;16;26;10;21;7;69;81;24;115;Egitto;287;Sri Lanka (ex Ceylon);184;Filippine;132;0;0;0;1395022,03;14;1;0
2016;Umbria - Molise;28;10686;11914;22600;3392;4440;11344;5273;937;198;81;71;229;600;739;1917;5307;Filippine;790;Egitto;611;Perù;287;3;1;0;1192396,73;43;1;2910
2016;Viale Monza;16;14010;14731;28741;4534;6675;14693;6847;916;254;111;120;289;734;930;1945;6426;Filippine;1650;Egitto;744;Perù;675;9;6;2;1135239,32;39;0;0
2016;Vigentina;5;6292;7295;13587;2184;1421;6384;2654;531;97;35;19;124;315;485;1196;3344;Filippine;190;Sri Lanka (ex Ceylon);174;Egitto;125;4;3;3;3427070,6;84;0;902
2016;Villapizzone;71;20015;20826;40841;6713;12928;20157;9146;1509;385;168;227;412;1004;1268;3018;8420;Cinese, Repubblica Popolare;2859;Filippine;1965;Egitto;1829;11;8;3;3005623,49;64;4;0
2016;Washington;51;11938;14711;26649;4297;2546;13519;6245;1126;197;57;44;231;598;755;2273;6566;Filippine;504;Francia;197;Ucraina;171;4;3;3;1306450,76;59;0;2440
2016;XXII Marzo;26;14345;16995;31340;4696;2971;15643;7098;1224;249;97;48;286;696;1052;2514;7725;Filippine;480;Perù;256;Sri Lanka (ex Ceylon);174;5;3;3;1637499,71;68;0;1140
2017;Adriano;17;8778;8169;16947;3110;3921;7521;3001;308;139;58;139;73;784;462;665;2602;Egitto;563;Filippine;531;Cinese, Repubblica Popolare;403;4;1;0;2431560,11;34;0;1360
2017;Affori;80;12438;12455;24893;4215;7214;12023;5143;744;259;103;259;210;835;574;1556;4882;Cinese, Repubblica Popolare;1808;Egitto;1183;Filippine;1108;6;3;2;2070893,65;21;2;1550
2017;Baggio;55;14062;15599;29661;4694;5541;14894;6793;1255;219;107;219;371;738;612;2692;7821;Filippine;1068;Perù;713;Egitto;652;7;3;2;3478599,96;55;0;0
2017;Bande Nere;52;20202;24028;44230;6215;7050;22522;10464;2383;340;126;340;678;1510;935;5027;12207;Filippine;1654;Egitto;594;Perù;544;13;7;6;2663880,93;73;3;0
2017;Barona;46;7963;9055;17018;2371;2376;8062;3310;796;129;63;129;274;339;310;1692;5339;Egitto;563;Filippine;295;Marocco;198;3;3;1;2006324,59;59;0;1240
2017;Bicocca;15;4310;4233;8543;1538;1444;4018;1669;142;110;36;110;39;395;280;367;1333;Egitto;211;Filippine;193;Cinese, Repubblica Popolare;149;0;0;0;1534521,13;39;3;3070
2017;Bovisa;77;7150;6767;13917;2163;4950;7566;4164;443;131;57;131;104;658;392;814;2377;Egitto;1213;Cinese, Repubblica Popolare;873;Filippine;587;4;2;1;1913132,63;27;1;3470
2017;Bovisasca;81;3381;3716;7097;1057;978;3340;1306;282;42;19;42;96;171;156;678;1974;Cinese, Repubblica Popolare;113;Perù;105;Romania;97;3;1;1;1576826,44;23;0;0
2017;Brera;2;8442;9757;18199;2987;2506;9150;4264;609;152;50;152;162;1004;629;1274;4190;Filippine;399;Sri Lanka (ex Ceylon);196;Romania;120;5;5;3;1637395,23;63;4;1354
2017;Bruzzano;83;6298;6630;12928;2179;2469;6215;2446;376;132;67;132;119;278;253;874;3091;Egitto;398;Romania;216;Filippine;215;3;2;1;1667691,29;21;1;0
2017;Buenos Aires - Venezia;21;28971;32920;61891;9134;7428;30864;13965;2173;446;188;446;599;2275;1430;4607;14317;Filippine;1262;Cinese, Repubblica Popolare;680;Sri Lanka (ex Ceylon);458;9;5;4;2877542,27;119;5;1220
2017;Cantalupa;47;262;248;510;79;81;250;113;4;3;0;3;1;29;9;16;88;Egitto;17;Cinese, Repubblica Popolare;14;Sri Lanka (ex Ceylon);7;0;0;0;926716,81;2;0;1460
2017;Cascina Triulza - Expo;73;704;105;809;13;175;32;5;0;0;0;0;3;129;72;4;49;Marocco;42;Albania;29;Romania;27;0;0;0;1729126,90;1;0;2204
2017;Centrale;10;9670;8894;18564;2504;4822;8976;4161;545;147;44;147;156;1044;448;1163;3665;Bangladesh;667;Filippine;588;Cinese, Repubblica Popolare;548;3;3;3;1556077,52;65;5;878
2017;Chiaravalle;34;546;509;1055;125;146;519;228;29;1;1;1;8;28;25;59;265;Egitto;29;Filippine;22;Sri Lanka (ex Ceylon);16;1;0;0;311640,12;4;0;0
2017;Città Studi;22;16754;19478;36232;4935;5303;18322;8513;1606;248;91;248;389;1331;865;3318;9171;Filippine;879;Perù;462;Sri Lanka (ex Ceylon);425;7;8;5;2207487,44;88;2;564
2017;Comasina;82;4691;4833;9524;1788;3107;4338;1834;339;80;39;80;87;273;290;647;1873;Cinese, Repubblica Popolare;1075;Egitto;395;Perù;232;3;2;2;926734,56;24;1;0
2017;Corsica;25;9016;10603;19619;2776;2848;9717;4342;808;179;65;179;200;644;426;1747;4732;Filippine;672;Cinese, Repubblica Popolare;238;Perù;227;5;3;3;1081329,70;35;2;1930
2017;De Angeli - Monte Rosa;58;9590;11573;21163;3215;2585;10686;5036;892;172;79;172;211;843;462;1864;5115;Filippine;385;Francia;293;Perù;170;3;2;3;1323078,54;249;2;1550
2017;Dergano;79;11949;11011;22960;3805;7938;11274;5366;613;219;89;219;167;972;663;1330;3954;Egitto;1703;Cinese, Repubblica Popolare;1681;Filippine;977;3;3;3;1358615,04;29;3;325
2017;Duomo;1;8070;8812;16882;2718;2064;8394;3863;539;131;40;131;154;839;625;1145;3752;Filippine;399;Sri Lanka (ex Ceylon);254;Francia;131;4;4;3;2341704,07;106;8;0
2017;Ex OM - Morivione;37;3702;4008;7710;1266;1283;3563;1551;213;66;33;66;142;281;213;624;1656;Filippine;248;Egitto;149;Cinese, Repubblica Popolare;134;2;2;1;817976,68;10;0;510
2017;Farini;78;2094;1838;3932;576;1366;1904;829;83;39;14;39;19;168;131;189;647;Egitto;350;Cinese, Repubblica Popolare;336;Filippine;124;0;0;0;1010230,89;17;0;325
2017;Figino;63;1074;1096;2170;384;473;1061;472;51;16;5;16;17;79;52;105;431;Filippine;64;Romania;63;Egitto;62;2;2;1;1424713,85;11;0;0
2017;Forze Armate;56;11515;12814;24329;3797;4393;12317;5794;922;193;67;193;241;645;567;1943;6267;Filippine;856;Egitto;764;Perù;423;7;5;2;3206902,39;66;2;0
2017;Gallaratese;65;15013;17481;32494;4434;3465;16672;7648;1874;182;81;182;465;740;616;4271;10967;Filippine;440;Romania;384;Perù;322;6;6;3;3894538,21;87;5;2570
2017;Garibaldi Repubblica;9;2649;2950;5599;746;796;2791;1278;175;34;16;34;52;269;146;0;1175;Cinese, Repubblica Popolare;108;Perù;70;Filippine;52;1;0;0;785668,25;27;2;1290
2017;Ghisolfa;70;8438;9507;17945;2829;3145;8842;3939;755;159;63;159;195;829;430;1428;3839;Cinese, Repubblica Popolare;639;Filippine;529;Egitto;314;0;0;0;1051452,21;32;0;203
2017;Giambellino;49;14880;16555;31435;5141;8081;16053;7755;1333;250;91;250;303;954;762;2497;7017;Egitto;2010;Filippine;1415;Sri Lanka (ex Ceylon);694;2;2;2;1965274,21;57;4;1890
2017;Giardini Porta Venezia;3;20;18;38;5;6;19;10;1;0;0;0;0;1;0;2;6;Filippine;3;Sri Lanka (ex Ceylon);3;;0;1;0;0;249646,83;3;0;0
2017;Gratosoglio - Ticinello;41;8854;9825;18679;2900;2732;8623;3382;855;90;42;90;220;320;363;2062;5429;Egitto;425;Filippine;360;Marocco;236;3;4;2;3312818,32;37;0;2153
2017;Greco;13;7606;7994;15600;2437;3793;7665;3440;605;133;49;133;143;574;378;1295;3382;Filippine;826;Cinese, Repubblica Popolare;633;Egitto;412;2;2;2;1768669,43;35;0;3460
2017;Guastalla;4;6923;8127;15050;2296;1784;7453;3295;534;84;30;84;116;548;327;1171;3721;Filippine;367;Sri Lanka (ex Ceylon);272;Romania;93;6;7;9;1548020,74;52;2;0
2017;Isola;11;11146;11750;22896;3204;4243;11375;5152;738;211;100;211;219;1160;608;1528;4604;Cinese, Repubblica Popolare;710;Egitto;652;Filippine;491;4;3;3;1322966,34;53;1;285
2017;Lambrate;23;5497;5822;11319;1921;2017;5828;2729;343;109;31;109;133;437;319;791;2136;Filippine;399;Egitto;286;Romania;154;6;4;2;3096861,87;39;0;1595
2017;Lodi - Corvetto;35;17275;18810;36085;5533;9300;18044;8325;1528;302;112;302;467;1185;978;3155;8525;Filippine;1713;Egitto;1518;Perù;771;9;7;4;3639092,52;54;4;1680
2017;Lorenteggio;53;6636;7380;14016;2213;1995;6677;2705;652;109;48;109;199;409;293;1556;3665;Egitto;451;Filippine;223;Romania;158;5;4;2;2635327,10;44;0;2100
2017;Loreto;20;23313;21550;44863;6448;15364;21907;9971;1194;363;151;363;329;2162;1345;2525;7856;Egitto;2877;Filippine;2818;Cinese, Repubblica Popolare;1801;6;5;4;1747565,53;56;2;640
2017;Maciachini - Maggiolina;12;12498;13694;26192;3814;5197;13195;6243;1101;200;81;200;241;906;639;2209;6144;Cinese, Repubblica Popolare;913;Filippine;911;Egitto;655;8;3;2;1674980,95;51;1;458
2017;Magenta - S. Vittore;7;8131;9337;17468;2994;1863;8449;3530;603;128;51;128;160;707;424;1256;3919;Filippine;298;Sri Lanka (ex Ceylon);218;Francia;210;5;6;4;1390146,88;58;4;1840
2017;Maggiore - Musocco;72;2785;2913;5698;966;985;3154;1515;169;57;24;57;55;311;85;360;1296;Perù;133;Egitto;114;Romania;110;2;2;1;3030188,71;47;0;0
2017;Mecenate;30;8898;10245;19143;2866;3133;9778;4496;1172;129;57;129;301;476;378;2488;5284;Perù;398;Filippine;392;Egitto;295;5;4;2;3821389,97;86;0;1940
2017;Muggiano;54;1535;1569;3104;698;202;1381;546;39;22;8;22;4;74;61;97;373;Ecuador;26;Egitto;24;Perù;24;1;1;0;444218,42;7;0;1040
2017;Navigli;44;8053;9069;17122;2514;2168;8665;4270;550;153;67;153;169;749;480;1098;3386;Egitto;240;Filippine;226;Romania;163;4;1;0;1483927,87;58;2;8020
2017;Niguarda - Cà Granda;14;17450;19345;36795;5415;5497;18568;8473;1657;222;75;222;472;904;886;3535;9974;Egitto;820;Cinese, Repubblica Popolare;581;Filippine;562;10;6;4;4251281,95;115;0;859
2017;Ortomercato;29;2152;2065;4217;645;1581;2095;1019;148;33;16;33;45;147;137;315;858;Egitto;420;Filippine;203;Cinese, Repubblica Popolare;164;1;1;1;1402519,65;15;0;1400
2017;Padova;19;18360;18721;37081;5554;12642;18328;8398;1376;329;134;329;360;1376;1039;2910;7866;Filippine;2674;Egitto;2385;Cinese, Repubblica Popolare;1302;7;4;3;2061945,50;49;2;650
2017;Pagano;68;8167;9225;17392;3131;1648;8340;3596;669;123;40;123;179;601;358;1392;4045;Filippine;248;Francia;168;Sri Lanka (ex Ceylon);131;2;2;2;1289734,29;53;1;1887
2017;Parco Agricolo Sud;87;160;142;302;73;36;128;53;5;3;2;3;1;25;17;10;41;Paesi Bassi;8;Ucraina;5;Marocco;4;0;0;0;5844580,12;1;0;2750
2017;Parco Bosco in Città;88;259;255;514;131;135;226;109;4;3;2;3;6;40;8;13;79;Romania;60;Filippine;14;Egitto;12;0;0;0;7837668,61;22;0;100
2017;Parco dei Navigli;86;168;121;289;55;45;132;63;3;3;1;3;1;10;21;6;30;Romania;10;Albania;9;Egitto;8;0;0;0;3617836,27;2;0;0
2017;Parco delle Abbazie;85;229;216;445;136;174;174;78;4;12;8;12;1;11;18;8;38;Montenegro;58;Romania;55;Bosnia-Erzegovina;32;0;0;0;13722000,00;22;0;1940
2017;Parco Forlanini - Ortica;24;2013;595;2608;178;1922;553;304;24;20;12;20;6;1596;74;37;127;Mali;173;Nigeria;167;Bangladesh;161;0;0;0;2925814,52;16;1;3800
2017;Parco Lambro - Cimiano;18;9089;10457;19546;2780;2951;10424;4806;1140;145;55;145;258;629;404;2247;5542;Filippine;569;Perù;328;Egitto;267;7;4;3;4971969,50;61;3;1940
2017;Parco Monlué - Ponte Lambro;31;2772;2398;5170;973;1886;2249;965;95;51;32;51;41;287;172;188;737;Egitto;321;Perù;205;Ecuador;183;1;1;0;2639289,21;21;0;3430
2017;Parco Nord;84;49;51;100;18;21;42;20;2;0;0;0;0;0;5;3;13;Cinese, Repubblica Popolare;4;Albania;3;Filippine;3;1;1;0;1533639,39;12;0;1200
2017;Parco Sempione;8;2;0;2;1;0;1;0;0;0;0;0;0;0;1;0;;;0;;0;;0;0;0;0;470434,33;8;0;1350
2017;Porta Romana;27;7741;8696;16437;2261;1695;8407;3934;567;134;49;134;155;692;383;1139;3514;Filippine;283;Cinese, Repubblica Popolare;131;Sri Lanka (ex Ceylon);105;1;2;1;1002793,53;36;1;420
2017;Portello;67;3866;4445;8311;1270;852;4192;1892;370;72;33;72;86;306;152;796;2197;Filippine;116;Perù;104;Cinese, Repubblica Popolare;82;3;3;2;909636,60;22;0;0
2017;QT 8;66;1853;2213;4066;644;415;1976;852;217;27;8;27;47;99;52;420;1058;Filippine;59;Sri Lanka (ex Ceylon);50;Cinese, Repubblica Popolare;39;3;2;1;1024437,42;18;1;917
2017;Quarto Cagnino;61;4747;5124;9871;1531;1054;4814;2038;328;74;31;74;82;214;162;795;2597;Egitto;192;Filippine;137;Cinese, Repubblica Popolare;136;3;1;1;986391,48;29;0;630
2017;Quarto Oggiaro;76;14730;15904;30634;5056;6999;15136;6732;1233;201;105;201;371;623;771;2573;7040;Cinese, Repubblica Popolare;1706;Egitto;920;Filippine;692;6;5;3;2778263,75;47;2;840
2017;Quinto Romano;62;2305;2401;4706;630;490;2325;951;155;19;10;19;51;79;93;340;1248;Egitto;94;Filippine;65;Romania;53;1;1;0;1645859,77;19;0;1680
2017;Quintosole;39;697;158;855;51;143;165;90;7;1;0;1;5;138;51;18;131;Egitto;31;Albania;28;Romania;22;0;0;0;1057528,77;4;0;0
2017;Ripamonti;38;7067;7566;14633;2334;1775;7122;2796;537;114;26;114;139;462;337;1128;3732;Filippine;265;Egitto;181;Romania;140;4;2;1;1853233,50;34;0;930
2017;Rogoredo;33;5179;4979;10158;2120;1935;4894;2170;215;119;33;119;68;362;289;413;1439;Egitto;283;Filippine;230;Romania;160;2;1;1;1200161,64;8;0;0
2017;Ronchetto delle Rane;40;384;350;734;142;116;323;94;8;3;2;3;7;6;16;28;103;Egitto;36;Filippine;22;Ecuador;13;0;0;0;188870,60;1;0;0
2017;Ronchetto sul Naviglio;48;6868;7649;14517;2058;1800;7379;3237;593;90;44;90;141;336;328;1359;4167;Egitto;378;Filippine;182;Perù;178;4;4;3;2406775,20;39;0;4430
2017;S. Cristoforo;45;6680;6960;13640;2106;2654;7330;3820;449;109;43;109;131;541;386;926;3030;Egitto;692;Filippine;249;Sri Lanka (ex Ceylon);227;5;1;1;1596174,14;37;0;4200
2017;S. Siro;60;6119;6572;12691;2242;2231;5889;2085;404;83;30;83;122;405;281;1063;2932;Filippine;420;Francia;397;Perù;155;6;8;3;3435307,37;65;0;0
2017;Sacco;74;143;112;255;33;61;126;52;8;2;2;2;1;2;5;16;59;Cinese, Repubblica Popolare;29;Filippine;5;Ecuador;4;0;0;0;708465,80;4;0;2204
2017;Sarpi;69;14069;16493;30562;5014;5129;15081;6991;1003;286;135;286;275;1247;667;2126;6235;Cinese, Repubblica Popolare;2223;Filippine;540;Perù;198;5;4;3;1811914,53;70;0;0
2017;Scalo Romana;36;6682;5843;12525;1914;4372;6172;3021;279;142;47;142;84;624;352;595;2148;Egitto;983;Filippine;653;Bangladesh;353;0;1;0;1736727,98;26;0;2000
2017;Selinunte;57;12817;13759;26576;4664;9354;13521;6757;1127;261;70;261;265;899;583;2043;5628;Egitto;3351;Filippine;1291;Marocco;629;2;1;0;984925,54;47;0;0
2017;Stadera;42;14675;15425;30100;4885;6032;16008;7803;1203;258;103;258;349;974;627;2367;6684;Filippine;1093;Egitto;934;Perù;413;8;5;3;3232237,35;47;1;2600
2017;Stephenson;75;60;47;107;12;39;54;22;1;2;1;2;0;20;1;5;17;Filippine;13;Cinese, Repubblica Popolare;6;Sri Lanka (ex Ceylon);4;0;0;0;560097,89;0;0;0
2017;Tibaldi;43;5543;6075;11618;1490;1982;6174;3169;571;95;37;95;133;557;295;1072;2876;Egitto;366;Filippine;313;Cinese, Repubblica Popolare;139;2;1;1;786214,31;22;0;0
2017;Ticinese;6;9036;10618;19654;2726;2053;9950;4761;677;164;67;164;163;852;511;1355;4358;Filippine;284;Egitto;243;Cinese, Repubblica Popolare;171;7;3;2;1255064,75;37;0;184
2017;Tortona;50;6823;8226;15049;2347;1180;7287;3054;582;113;50;113;130;455;263;1272;3707;Filippine;176;Sri Lanka (ex Ceylon);89;Egitto;84;4;2;0;996786,39;23;1;730
2017;Tre Torri;59;1000;1112;2112;461;372;944;373;66;27;10;27;14;160;65;123;384;Francia;59;Filippine;30;Spagna;28;0;0;0;513316,34;14;0;780
2017;Trenno;64;2090;2022;4112;499;354;2000;789;127;20;10;20;46;132;138;279;1220;Somalia;37;Filippine;28;Ucraina;22;1;0;0;489710,56;13;0;225
2017;Triulzo Superiore;32;929;702;1631;339;1081;829;464;15;19;7;19;2;99;65;27;122;Egitto;262;Sri Lanka (ex Ceylon);203;Filippine;122;0;0;0;1395022,03;14;1;0
2017;Umbria - Molise;28;10770;11956;22726;3428;4457;11393;5303;933;229;85;229;238;847;585;1926;5263;Filippine;796;Egitto;644;Marocco;284;3;1;0;1192396,73;43;1;2910
2017;Viale Monza;16;14266;14943;29209;4651;6829;15043;7104;931;259;107;259;285;1103;765;1980;6448;Filippine;1695;Egitto;749;Perù;640;9;6;2;1135239,32;39;0;0
2017;Vigentina;5;6372;7286;13658;2158;1433;6459;2704;521;74;21;74;155;486;270;1186;3293;Filippine;173;Sri Lanka (ex Ceylon);164;Egitto;120;4;3;3;3427070,60;84;0;902
2017;Villapizzone;71;20217;20999;41216;6795;13163;20355;9276;1504;356;143;356;459;1418;1014;3022;8390;Cinese, Repubblica Popolare;2952;Filippine;1967;Egitto;1882;11;8;3;3005623,49;64;4;0
2017;Washington;51;12007;14846;26853;4342;2521;13672;6377;1118;211;92;211;295;877;499;2300;6575;Filippine;508;Francia;203;Ucraina;175;4;3;3;1306450,76;59;0;2440
2017;XXII Marzo;26;14546;17121;31667;4797;3023;15812;7215;1232;248;99;248;342;1069;623;2562;7685;Filippine;449;Perù;253;Sri Lanka (ex Ceylon);180;5;3;3;1637499,71;68;0;1140
;;;;;;;;;;;;;;;;;;;;;;;;;;;;;;;
